Timed/WaveForm.vcd
$date
     Oct 13, 2020       23:23:30
$end

$version
 SystemC 2.3.2-Accellera --- Oct 15 2019 09:07:06
$end

$timescale
     1 ps
$end

$scope module SystemC $end
$var wire   32  aaaaa  addr [31:0]  $end
$var wire   32  aaaab  dataIn [31:0]  $end
$var wire   32  aaaac  dataOut [31:0]  $end
$var wire    1  aaaad  ren       $end
$var wire    1  aaaae  wen       $end
$var wire    1  aaaaf  ack       $end
$var wire    1  aaaag  clk       $end
$var wire   32  aaaah  SAD [31:0]  $end
$var wire   32  aaaai  sub [31:0]  $end
$var wire   32  aaaaj  a [31:0]  $end
$var wire   32  aaaak  b [31:0]  $end
$var wire    1  aaaal  SAD_clk       $end
$upscope $end
$enddefinitions  $end

$comment
All initial values are dumped below at time 0 sec = 0 timescale units.
$end

$dumpvars
b0 aaaaa
b0 aaaab
b0 aaaac
0aaaad
0aaaae
0aaaaf
0aaaag
b0 aaaah
b0 aaaai
b0 aaaaj
b0 aaaak
0aaaal
$end

#5000
1aaaag
1aaaal

#10000
0aaaag
0aaaal

#15000
1aaaag
1aaaal

#20000
0aaaag
0aaaal

#25000
1aaaag
1aaaal

#30000
1aaaad
0aaaag
0aaaal

#35000
1aaaaf
1aaaag
1aaaal

#40000
0aaaad
0aaaag
0aaaal

#45000
0aaaaf
1aaaag
1aaaal

#50000
b100000000000000 aaaaa
1aaaad
0aaaag
0aaaal

#55000
b10110101 aaaac
1aaaaf
1aaaag
1aaaal

#60000
0aaaad
0aaaag
b10110101 aaaak
0aaaal

#65000
0aaaaf
1aaaag
1aaaal

#70000
0aaaag
0aaaal

#75000
1aaaag
1aaaal

#80000
0aaaag
0aaaal

#85000
1aaaag
1aaaal

#90000
0aaaag
b10110101 aaaai
0aaaal

#95000
1aaaag
1aaaal

#100000
0aaaag
0aaaal

#105000
1aaaag
1aaaal

#110000
0aaaag
0aaaal

#115000
1aaaag
1aaaal

#120000
0aaaag
0aaaal

#125000
1aaaag
1aaaal

#130000
b1 aaaaa
1aaaad
0aaaag
0aaaal

#135000
b0 aaaac
1aaaaf
1aaaag
1aaaal

#140000
0aaaad
0aaaag
0aaaal

#145000
0aaaaf
1aaaag
1aaaal

#150000
b100000000000001 aaaaa
1aaaad
0aaaag
0aaaal

#155000
b100110101 aaaac
1aaaaf
1aaaag
1aaaal

#160000
0aaaad
0aaaag
b100110101 aaaak
0aaaal

#165000
0aaaaf
1aaaag
1aaaal

#170000
0aaaag
0aaaal

#175000
1aaaag
1aaaal

#180000
0aaaag
0aaaal

#185000
1aaaag
1aaaal

#190000
0aaaag
b100110101 aaaai
0aaaal

#195000
1aaaag
1aaaal

#200000
0aaaag
0aaaal

#205000
1aaaag
1aaaal

#210000
0aaaag
0aaaal

#215000
1aaaag
1aaaal

#220000
0aaaag
0aaaal

#225000
1aaaag
1aaaal

#230000
b10 aaaaa
1aaaad
0aaaag
0aaaal

#235000
b0 aaaac
1aaaaf
1aaaag
1aaaal

#240000
0aaaad
0aaaag
0aaaal

#245000
0aaaaf
1aaaag
1aaaal

#250000
b100000000000010 aaaaa
1aaaad
0aaaag
0aaaal

#255000
b101001111 aaaac
1aaaaf
1aaaag
1aaaal

#260000
0aaaad
0aaaag
b101001111 aaaak
0aaaal

#265000
0aaaaf
1aaaag
1aaaal

#270000
0aaaag
0aaaal

#275000
1aaaag
1aaaal

#280000
0aaaag
0aaaal

#285000
1aaaag
1aaaal

#290000
0aaaag
b101001111 aaaai
0aaaal

#295000
1aaaag
1aaaal

#300000
0aaaag
0aaaal

#305000
1aaaag
1aaaal

#310000
0aaaag
0aaaal

#315000
1aaaag
1aaaal

#320000
0aaaag
0aaaal

#325000
1aaaag
1aaaal

#330000
b11 aaaaa
1aaaad
0aaaag
0aaaal

#335000
b0 aaaac
1aaaaf
1aaaag
1aaaal

#340000
0aaaad
0aaaag
0aaaal

#345000
0aaaaf
1aaaag
1aaaal

#350000
b100000000000011 aaaaa
1aaaad
0aaaag
0aaaal

#355000
b10001010 aaaac
1aaaaf
1aaaag
1aaaal

#360000
0aaaad
0aaaag
b10001010 aaaak
0aaaal

#365000
0aaaaf
1aaaag
1aaaal

#370000
0aaaag
0aaaal

#375000
1aaaag
1aaaal

#380000
0aaaag
0aaaal

#385000
1aaaag
1aaaal

#390000
0aaaag
b10001010 aaaai
0aaaal

#395000
1aaaag
1aaaal

#400000
0aaaag
0aaaal

#405000
1aaaag
1aaaal

#410000
0aaaag
0aaaal

#415000
1aaaag
1aaaal

#420000
0aaaag
0aaaal

#425000
1aaaag
1aaaal

#430000
b100 aaaaa
1aaaad
0aaaag
0aaaal

#435000
b0 aaaac
1aaaaf
1aaaag
1aaaal

#440000
0aaaad
0aaaag
0aaaal

#445000
0aaaaf
1aaaag
1aaaal

#450000
b100000000000100 aaaaa
1aaaad
0aaaag
0aaaal

#455000
b100100100 aaaac
1aaaaf
1aaaag
1aaaal

#460000
0aaaad
0aaaag
b100100100 aaaak
0aaaal

#465000
0aaaaf
1aaaag
1aaaal

#470000
0aaaag
0aaaal

#475000
1aaaag
1aaaal

#480000
0aaaag
0aaaal

#485000
1aaaag
1aaaal

#490000
0aaaag
b100100100 aaaai
0aaaal

#495000
1aaaag
1aaaal

#500000
0aaaag
0aaaal

#505000
1aaaag
1aaaal

#510000
0aaaag
0aaaal

#515000
1aaaag
1aaaal

#520000
0aaaag
0aaaal

#525000
1aaaag
1aaaal

#530000
b101 aaaaa
1aaaad
0aaaag
0aaaal

#535000
b0 aaaac
1aaaaf
1aaaag
1aaaal

#540000
0aaaad
0aaaag
0aaaal

#545000
0aaaaf
1aaaag
1aaaal

#550000
b100000000000101 aaaaa
1aaaad
0aaaag
0aaaal

#555000
b11110001 aaaac
1aaaaf
1aaaag
1aaaal

#560000
0aaaad
0aaaag
b11110001 aaaak
0aaaal

#565000
0aaaaf
1aaaag
1aaaal

#570000
0aaaag
0aaaal

#575000
1aaaag
1aaaal

#580000
0aaaag
0aaaal

#585000
1aaaag
1aaaal

#590000
0aaaag
b11110001 aaaai
0aaaal

#595000
1aaaag
1aaaal

#600000
0aaaag
0aaaal

#605000
1aaaag
1aaaal

#610000
0aaaag
0aaaal

#615000
1aaaag
1aaaal

#620000
0aaaag
0aaaal

#625000
1aaaag
1aaaal

#630000
b110 aaaaa
1aaaad
0aaaag
0aaaal

#635000
b0 aaaac
1aaaaf
1aaaag
1aaaal

#640000
0aaaad
0aaaag
0aaaal

#645000
0aaaaf
1aaaag
1aaaal

#650000
b100000000000110 aaaaa
1aaaad
0aaaag
0aaaal

#655000
b101001010 aaaac
1aaaaf
1aaaag
1aaaal

#660000
0aaaad
0aaaag
b101001010 aaaak
0aaaal

#665000
0aaaaf
1aaaag
1aaaal

#670000
0aaaag
0aaaal

#675000
1aaaag
1aaaal

#680000
0aaaag
0aaaal

#685000
1aaaag
1aaaal

#690000
0aaaag
b101001010 aaaai
0aaaal

#695000
1aaaag
1aaaal

#700000
0aaaag
0aaaal

#705000
1aaaag
1aaaal

#710000
0aaaag
0aaaal

#715000
1aaaag
1aaaal

#720000
0aaaag
0aaaal

#725000
1aaaag
1aaaal

#730000
b111 aaaaa
1aaaad
0aaaag
0aaaal

#735000
b11000100 aaaac
1aaaaf
1aaaag
1aaaal

#740000
0aaaad
0aaaag
0aaaal

#745000
0aaaaf
1aaaag
1aaaal

#750000
b100000000000111 aaaaa
1aaaad
0aaaag
0aaaal

#755000
b100011011 aaaac
1aaaaf
1aaaag
1aaaal

#760000
0aaaad
0aaaag
b11000100 aaaaj
b100011011 aaaak
0aaaal

#765000
0aaaaf
1aaaag
1aaaal

#770000
0aaaag
0aaaal

#775000
1aaaag
1aaaal

#780000
0aaaag
0aaaal

#785000
1aaaag
1aaaal

#790000
0aaaag
b1010111 aaaai
0aaaal

#795000
1aaaag
1aaaal

#800000
0aaaag
0aaaal

#805000
1aaaag
1aaaal

#810000
0aaaag
0aaaal

#815000
1aaaag
1aaaal

#820000
0aaaag
0aaaal

#825000
1aaaag
1aaaal

#830000
b1000 aaaaa
1aaaad
0aaaag
0aaaal

#835000
b1110110 aaaac
1aaaaf
1aaaag
1aaaal

#840000
0aaaad
0aaaag
0aaaal

#845000
0aaaaf
1aaaag
1aaaal

#850000
b100000000001000 aaaaa
1aaaad
0aaaag
0aaaal

#855000
b11001101 aaaac
1aaaaf
1aaaag
1aaaal

#860000
0aaaad
0aaaag
b1110110 aaaaj
b11001101 aaaak
0aaaal

#865000
0aaaaf
1aaaag
1aaaal

#870000
0aaaag
0aaaal

#875000
1aaaag
1aaaal

#880000
0aaaag
0aaaal

#885000
1aaaag
1aaaal

#890000
0aaaag
0aaaal

#895000
1aaaag
1aaaal

#900000
0aaaag
0aaaal

#905000
1aaaag
1aaaal

#910000
0aaaag
0aaaal

#915000
1aaaag
1aaaal

#920000
0aaaag
0aaaal

#925000
1aaaag
1aaaal

#930000
b1001 aaaaa
1aaaad
0aaaag
0aaaal

#935000
b11100001 aaaac
1aaaaf
1aaaag
1aaaal

#940000
0aaaad
0aaaag
0aaaal

#945000
0aaaaf
1aaaag
1aaaal

#950000
b100000000001001 aaaaa
1aaaad
0aaaag
0aaaal

#955000
b100100100 aaaac
1aaaaf
1aaaag
1aaaal

#960000
0aaaad
0aaaag
b11100001 aaaaj
b100100100 aaaak
0aaaal

#965000
0aaaaf
1aaaag
1aaaal

#970000
0aaaag
0aaaal

#975000
1aaaag
1aaaal

#980000
0aaaag
0aaaal

#985000
1aaaag
1aaaal

#990000
0aaaag
b1000011 aaaai
0aaaal

#995000
1aaaag
1aaaal

#1000000
0aaaag
0aaaal

#1005000
1aaaag
1aaaal

#1010000
0aaaag
0aaaal

#1015000
1aaaag
1aaaal

#1020000
0aaaag
0aaaal

#1025000
1aaaag
1aaaal

#1030000
b1010 aaaaa
1aaaad
0aaaag
0aaaal

#1035000
b10011000 aaaac
1aaaaf
1aaaag
1aaaal

#1040000
0aaaad
0aaaag
0aaaal

#1045000
0aaaaf
1aaaag
1aaaal

#1050000
b100000000001010 aaaaa
1aaaad
0aaaag
0aaaal

#1055000
b101010101 aaaac
1aaaaf
1aaaag
1aaaal

#1060000
0aaaad
0aaaag
b10011000 aaaaj
b101010101 aaaak
0aaaal

#1065000
0aaaaf
1aaaag
1aaaal

#1070000
0aaaag
0aaaal

#1075000
1aaaag
1aaaal

#1080000
0aaaag
0aaaal

#1085000
1aaaag
1aaaal

#1090000
0aaaag
b10111101 aaaai
0aaaal

#1095000
1aaaag
1aaaal

#1100000
0aaaag
0aaaal

#1105000
1aaaag
1aaaal

#1110000
0aaaag
0aaaal

#1115000
1aaaag
1aaaal

#1120000
0aaaag
0aaaal

#1125000
1aaaag
1aaaal

#1130000
b1011 aaaaa
1aaaad
0aaaag
0aaaal

#1135000
b11011010 aaaac
1aaaaf
1aaaag
1aaaal

#1140000
0aaaad
0aaaag
0aaaal

#1145000
0aaaaf
1aaaag
1aaaal

#1150000
b100000000001011 aaaaa
1aaaad
0aaaag
0aaaal

#1155000
b100001111 aaaac
1aaaaf
1aaaag
1aaaal

#1160000
0aaaad
0aaaag
b11011010 aaaaj
b100001111 aaaak
0aaaal

#1165000
0aaaaf
1aaaag
1aaaal

#1170000
0aaaag
0aaaal

#1175000
1aaaag
1aaaal

#1180000
0aaaag
0aaaal

#1185000
1aaaag
1aaaal

#1190000
0aaaag
b110101 aaaai
0aaaal

#1195000
1aaaag
1aaaal

#1200000
0aaaag
0aaaal

#1205000
1aaaag
1aaaal

#1210000
0aaaag
0aaaal

#1215000
1aaaag
1aaaal

#1220000
0aaaag
0aaaal

#1225000
1aaaag
1aaaal

#1230000
b1100 aaaaa
1aaaad
0aaaag
0aaaal

#1235000
b10010101 aaaac
1aaaaf
1aaaag
1aaaal

#1240000
0aaaad
0aaaag
0aaaal

#1245000
0aaaaf
1aaaag
1aaaal

#1250000
b100000000001100 aaaaa
1aaaad
0aaaag
0aaaal

#1255000
b1101010 aaaac
1aaaaf
1aaaag
1aaaal

#1260000
0aaaad
0aaaag
b10010101 aaaaj
b1101010 aaaak
0aaaal

#1265000
0aaaaf
1aaaag
1aaaal

#1270000
0aaaag
0aaaal

#1275000
1aaaag
1aaaal

#1280000
0aaaag
b101011 aaaai
0aaaal

#1285000
1aaaag
1aaaal

#1290000
0aaaag
0aaaal

#1295000
1aaaag
1aaaal

#1300000
0aaaag
0aaaal

#1305000
1aaaag
1aaaal

#1310000
0aaaag
0aaaal

#1315000
1aaaag
1aaaal

#1320000
b1101 aaaaa
1aaaad
0aaaag
0aaaal

#1325000
b11011 aaaac
1aaaaf
1aaaag
1aaaal

#1330000
0aaaad
0aaaag
0aaaal

#1335000
0aaaaf
1aaaag
1aaaal

#1340000
b100000000001101 aaaaa
1aaaad
0aaaag
0aaaal

#1345000
b10101101 aaaac
1aaaaf
1aaaag
1aaaal

#1350000
0aaaad
0aaaag
b11011 aaaaj
b10101101 aaaak
0aaaal

#1355000
0aaaaf
1aaaag
1aaaal

#1360000
0aaaag
0aaaal

#1365000
1aaaag
1aaaal

#1370000
0aaaag
0aaaal

#1375000
1aaaag
1aaaal

#1380000
0aaaag
b10010010 aaaai
0aaaal

#1385000
1aaaag
1aaaal

#1390000
0aaaag
0aaaal

#1395000
1aaaag
1aaaal

#1400000
0aaaag
0aaaal

#1405000
1aaaag
1aaaal

#1410000
0aaaag
0aaaal

#1415000
1aaaag
1aaaal

#1420000
b1110 aaaaa
1aaaad
0aaaag
0aaaal

#1425000
b11110111 aaaac
1aaaaf
1aaaag
1aaaal

#1430000
0aaaad
0aaaag
0aaaal

#1435000
0aaaaf
1aaaag
1aaaal

#1440000
b100000000001110 aaaaa
1aaaad
0aaaag
0aaaal

#1445000
b101011101 aaaac
1aaaaf
1aaaag
1aaaal

#1450000
0aaaad
0aaaag
b11110111 aaaaj
b101011101 aaaak
0aaaal

#1455000
0aaaaf
1aaaag
1aaaal

#1460000
0aaaag
0aaaal

#1465000
1aaaag
1aaaal

#1470000
0aaaag
0aaaal

#1475000
1aaaag
1aaaal

#1480000
0aaaag
b1100110 aaaai
0aaaal

#1485000
1aaaag
1aaaal

#1490000
0aaaag
0aaaal

#1495000
1aaaag
1aaaal

#1500000
0aaaag
0aaaal

#1505000
1aaaag
1aaaal

#1510000
0aaaag
0aaaal

#1515000
1aaaag
1aaaal

#1520000
b1111 aaaaa
1aaaad
0aaaag
0aaaal

#1525000
b11010000 aaaac
1aaaaf
1aaaag
1aaaal

#1530000
0aaaad
0aaaag
0aaaal

#1535000
0aaaaf
1aaaag
1aaaal

#1540000
b100000000001111 aaaaa
1aaaad
0aaaag
0aaaal

#1545000
b11110010 aaaac
1aaaaf
1aaaag
1aaaal

#1550000
0aaaad
0aaaag
b11010000 aaaaj
b11110010 aaaak
0aaaal

#1555000
0aaaaf
1aaaag
1aaaal

#1560000
0aaaag
0aaaal

#1565000
1aaaag
1aaaal

#1570000
0aaaag
0aaaal

#1575000
1aaaag
1aaaal

#1580000
0aaaag
b100010 aaaai
0aaaal

#1585000
1aaaag
1aaaal

#1590000
0aaaag
0aaaal

#1595000
1aaaag
1aaaal

#1600000
0aaaag
0aaaal

#1605000
1aaaag
1aaaal

#1610000
0aaaag
0aaaal

#1615000
1aaaag
1aaaal

#1620000
b10000 aaaaa
1aaaad
0aaaag
0aaaal

#1625000
b11110000 aaaac
1aaaaf
1aaaag
1aaaal

#1630000
0aaaad
0aaaag
0aaaal

#1635000
0aaaaf
1aaaag
1aaaal

#1640000
b100000000010000 aaaaa
1aaaad
0aaaag
0aaaal

#1645000
b100111010 aaaac
1aaaaf
1aaaag
1aaaal

#1650000
0aaaad
0aaaag
b11110000 aaaaj
b100111010 aaaak
0aaaal

#1655000
0aaaaf
1aaaag
1aaaal

#1660000
0aaaag
0aaaal

#1665000
1aaaag
1aaaal

#1670000
0aaaag
0aaaal

#1675000
1aaaag
1aaaal

#1680000
0aaaag
b1001010 aaaai
0aaaal

#1685000
1aaaag
1aaaal

#1690000
0aaaag
0aaaal

#1695000
1aaaag
1aaaal

#1700000
0aaaag
0aaaal

#1705000
1aaaag
1aaaal

#1710000
0aaaag
0aaaal

#1715000
1aaaag
1aaaal

#1720000
b10001 aaaaa
1aaaad
0aaaag
0aaaal

#1725000
b100000000 aaaac
1aaaaf
1aaaag
1aaaal

#1730000
0aaaad
0aaaag
0aaaal

#1735000
0aaaaf
1aaaag
1aaaal

#1740000
b100000000010001 aaaaa
1aaaad
0aaaag
0aaaal

#1745000
b100110010 aaaac
1aaaaf
1aaaag
1aaaal

#1750000
0aaaad
0aaaag
b100000000 aaaaj
b100110010 aaaak
0aaaal

#1755000
0aaaaf
1aaaag
1aaaal

#1760000
0aaaag
0aaaal

#1765000
1aaaag
1aaaal

#1770000
0aaaag
0aaaal

#1775000
1aaaag
1aaaal

#1780000
0aaaag
b110010 aaaai
0aaaal

#1785000
1aaaag
1aaaal

#1790000
0aaaag
0aaaal

#1795000
1aaaag
1aaaal

#1800000
0aaaag
0aaaal

#1805000
1aaaag
1aaaal

#1810000
0aaaag
0aaaal

#1815000
1aaaag
1aaaal

#1820000
b10010 aaaaa
1aaaad
0aaaag
0aaaal

#1825000
b11010001 aaaac
1aaaaf
1aaaag
1aaaal

#1830000
0aaaad
0aaaag
0aaaal

#1835000
0aaaaf
1aaaag
1aaaal

#1840000
b100000000010010 aaaaa
1aaaad
0aaaag
0aaaal

#1845000
b11010110 aaaac
1aaaaf
1aaaag
1aaaal

#1850000
0aaaad
0aaaag
b11010001 aaaaj
b11010110 aaaak
0aaaal

#1855000
0aaaaf
1aaaag
1aaaal

#1860000
0aaaag
0aaaal

#1865000
1aaaag
1aaaal

#1870000
0aaaag
0aaaal

#1875000
1aaaag
1aaaal

#1880000
0aaaag
b101 aaaai
0aaaal

#1885000
1aaaag
1aaaal

#1890000
0aaaag
0aaaal

#1895000
1aaaag
1aaaal

#1900000
0aaaag
0aaaal

#1905000
1aaaag
1aaaal

#1910000
0aaaag
0aaaal

#1915000
1aaaag
1aaaal

#1920000
b10011 aaaaa
1aaaad
0aaaag
0aaaal

#1925000
b11111011 aaaac
1aaaaf
1aaaag
1aaaal

#1930000
0aaaad
0aaaag
0aaaal

#1935000
0aaaaf
1aaaag
1aaaal

#1940000
b100000000010011 aaaaa
1aaaad
0aaaag
0aaaal

#1945000
b1101110 aaaac
1aaaaf
1aaaag
1aaaal

#1950000
0aaaad
0aaaag
b11111011 aaaaj
b1101110 aaaak
0aaaal

#1955000
0aaaaf
1aaaag
1aaaal

#1960000
0aaaag
0aaaal

#1965000
1aaaag
1aaaal

#1970000
0aaaag
b10001101 aaaai
0aaaal

#1975000
1aaaag
1aaaal

#1980000
0aaaag
0aaaal

#1985000
1aaaag
1aaaal

#1990000
0aaaag
0aaaal

#1995000
1aaaag
1aaaal

#2000000
0aaaag
0aaaal

#2005000
1aaaag
1aaaal

#2010000
b10100 aaaaa
1aaaad
0aaaag
0aaaal

#2015000
b1111111 aaaac
1aaaaf
1aaaag
1aaaal

#2020000
0aaaad
0aaaag
0aaaal

#2025000
0aaaaf
1aaaag
1aaaal

#2030000
b100000000010100 aaaaa
1aaaad
0aaaag
0aaaal

#2035000
b100010010 aaaac
1aaaaf
1aaaag
1aaaal

#2040000
0aaaad
0aaaag
b1111111 aaaaj
b100010010 aaaak
0aaaal

#2045000
0aaaaf
1aaaag
1aaaal

#2050000
0aaaag
0aaaal

#2055000
1aaaag
1aaaal

#2060000
0aaaag
0aaaal

#2065000
1aaaag
1aaaal

#2070000
0aaaag
b10010011 aaaai
0aaaal

#2075000
1aaaag
1aaaal

#2080000
0aaaag
0aaaal

#2085000
1aaaag
1aaaal

#2090000
0aaaag
0aaaal

#2095000
1aaaag
1aaaal

#2100000
0aaaag
0aaaal

#2105000
1aaaag
1aaaal

#2110000
b10101 aaaaa
1aaaad
0aaaag
0aaaal

#2115000
b11011011 aaaac
1aaaaf
1aaaag
1aaaal

#2120000
0aaaad
0aaaag
0aaaal

#2125000
0aaaaf
1aaaag
1aaaal

#2130000
b100000000010101 aaaaa
1aaaad
0aaaag
0aaaal

#2135000
b10011110 aaaac
1aaaaf
1aaaag
1aaaal

#2140000
0aaaad
0aaaag
b11011011 aaaaj
b10011110 aaaak
0aaaal

#2145000
0aaaaf
1aaaag
1aaaal

#2150000
0aaaag
0aaaal

#2155000
1aaaag
1aaaal

#2160000
0aaaag
b111101 aaaai
0aaaal

#2165000
1aaaag
1aaaal

#2170000
0aaaag
0aaaal

#2175000
1aaaag
1aaaal

#2180000
0aaaag
0aaaal

#2185000
1aaaag
1aaaal

#2190000
0aaaag
0aaaal

#2195000
1aaaag
1aaaal

#2200000
b10110 aaaaa
1aaaad
0aaaag
0aaaal

#2205000
b1110100 aaaac
1aaaaf
1aaaag
1aaaal

#2210000
0aaaad
0aaaag
0aaaal

#2215000
0aaaaf
1aaaag
1aaaal

#2220000
b100000000010110 aaaaa
1aaaad
0aaaag
0aaaal

#2225000
b10101001 aaaac
1aaaaf
1aaaag
1aaaal

#2230000
0aaaad
0aaaag
b1110100 aaaaj
b10101001 aaaak
0aaaal

#2235000
0aaaaf
1aaaag
1aaaal

#2240000
0aaaag
0aaaal

#2245000
1aaaag
1aaaal

#2250000
0aaaag
0aaaal

#2255000
1aaaag
1aaaal

#2260000
0aaaag
b110101 aaaai
0aaaal

#2265000
1aaaag
1aaaal

#2270000
0aaaag
0aaaal

#2275000
1aaaag
1aaaal

#2280000
0aaaag
0aaaal

#2285000
1aaaag
1aaaal

#2290000
0aaaag
0aaaal

#2295000
1aaaag
1aaaal

#2300000
b10111 aaaaa
1aaaad
0aaaag
0aaaal

#2305000
b11100111 aaaac
1aaaaf
1aaaag
1aaaal

#2310000
0aaaad
0aaaag
0aaaal

#2315000
0aaaaf
1aaaag
1aaaal

#2320000
b100000000010111 aaaaa
1aaaad
0aaaag
0aaaal

#2325000
b10110010 aaaac
1aaaaf
1aaaag
1aaaal

#2330000
0aaaad
0aaaag
b11100111 aaaaj
b10110010 aaaak
0aaaal

#2335000
0aaaaf
1aaaag
1aaaal

#2340000
0aaaag
0aaaal

#2345000
1aaaag
1aaaal

#2350000
0aaaag
0aaaal

#2355000
1aaaag
1aaaal

#2360000
0aaaag
0aaaal

#2365000
1aaaag
1aaaal

#2370000
0aaaag
0aaaal

#2375000
1aaaag
1aaaal

#2380000
0aaaag
0aaaal

#2385000
1aaaag
1aaaal

#2390000
b11000 aaaaa
1aaaad
0aaaag
0aaaal

#2395000
b101000 aaaac
1aaaaf
1aaaag
1aaaal

#2400000
0aaaad
0aaaag
0aaaal

#2405000
0aaaaf
1aaaag
1aaaal

#2410000
b100000000011000 aaaaa
1aaaad
0aaaag
0aaaal

#2415000
b11000011 aaaac
1aaaaf
1aaaag
1aaaal

#2420000
0aaaad
0aaaag
b101000 aaaaj
b11000011 aaaak
0aaaal

#2425000
0aaaaf
1aaaag
1aaaal

#2430000
0aaaag
0aaaal

#2435000
1aaaag
1aaaal

#2440000
0aaaag
0aaaal

#2445000
1aaaag
1aaaal

#2450000
0aaaag
b10011011 aaaai
0aaaal

#2455000
1aaaag
1aaaal

#2460000
0aaaag
0aaaal

#2465000
1aaaag
1aaaal

#2470000
0aaaag
0aaaal

#2475000
1aaaag
1aaaal

#2480000
0aaaag
0aaaal

#2485000
1aaaag
1aaaal

#2490000
b11001 aaaaa
1aaaad
0aaaag
0aaaal

#2495000
b11000000 aaaac
1aaaaf
1aaaag
1aaaal

#2500000
0aaaad
0aaaag
0aaaal

#2505000
0aaaaf
1aaaag
1aaaal

#2510000
b100000000011001 aaaaa
1aaaad
0aaaag
0aaaal

#2515000
b100100101 aaaac
1aaaaf
1aaaag
1aaaal

#2520000
0aaaad
0aaaag
b11000000 aaaaj
b100100101 aaaak
0aaaal

#2525000
0aaaaf
1aaaag
1aaaal

#2530000
0aaaag
0aaaal

#2535000
1aaaag
1aaaal

#2540000
0aaaag
0aaaal

#2545000
1aaaag
1aaaal

#2550000
0aaaag
b1100101 aaaai
0aaaal

#2555000
1aaaag
1aaaal

#2560000
0aaaag
0aaaal

#2565000
1aaaag
1aaaal

#2570000
0aaaag
0aaaal

#2575000
1aaaag
1aaaal

#2580000
0aaaag
0aaaal

#2585000
1aaaag
1aaaal

#2590000
b11010 aaaaa
1aaaad
0aaaag
0aaaal

#2595000
b100000 aaaac
1aaaaf
1aaaag
1aaaal

#2600000
0aaaad
0aaaag
0aaaal

#2605000
0aaaaf
1aaaag
1aaaal

#2610000
b100000000011010 aaaaa
1aaaad
0aaaag
0aaaal

#2615000
b101000111 aaaac
1aaaaf
1aaaag
1aaaal

#2620000
0aaaad
0aaaag
b100000 aaaaj
b101000111 aaaak
0aaaal

#2625000
0aaaaf
1aaaag
1aaaal

#2630000
0aaaag
0aaaal

#2635000
1aaaag
1aaaal

#2640000
0aaaag
0aaaal

#2645000
1aaaag
1aaaal

#2650000
0aaaag
b100100111 aaaai
0aaaal

#2655000
1aaaag
1aaaal

#2660000
0aaaag
0aaaal

#2665000
1aaaag
1aaaal

#2670000
0aaaag
0aaaal

#2675000
1aaaag
1aaaal

#2680000
0aaaag
0aaaal

#2685000
1aaaag
1aaaal

#2690000
b11011 aaaaa
1aaaad
0aaaag
0aaaal

#2695000
b11011110 aaaac
1aaaaf
1aaaag
1aaaal

#2700000
0aaaad
0aaaag
0aaaal

#2705000
0aaaaf
1aaaag
1aaaal

#2710000
b100000000011011 aaaaa
1aaaad
0aaaag
0aaaal

#2715000
b1101100 aaaac
1aaaaf
1aaaag
1aaaal

#2720000
0aaaad
0aaaag
b11011110 aaaaj
b1101100 aaaak
0aaaal

#2725000
0aaaaf
1aaaag
1aaaal

#2730000
0aaaag
0aaaal

#2735000
1aaaag
1aaaal

#2740000
0aaaag
b1110010 aaaai
0aaaal

#2745000
1aaaag
1aaaal

#2750000
0aaaag
0aaaal

#2755000
1aaaag
1aaaal

#2760000
0aaaag
0aaaal

#2765000
1aaaag
1aaaal

#2770000
0aaaag
0aaaal

#2775000
1aaaag
1aaaal

#2780000
b11100 aaaaa
1aaaad
0aaaag
0aaaal

#2785000
b1101010 aaaac
1aaaaf
1aaaag
1aaaal

#2790000
0aaaad
0aaaag
0aaaal

#2795000
0aaaaf
1aaaag
1aaaal

#2800000
b100000000011100 aaaaa
1aaaad
0aaaag
0aaaal

#2805000
b10110001 aaaac
1aaaaf
1aaaag
1aaaal

#2810000
0aaaad
0aaaag
b1101010 aaaaj
b10110001 aaaak
0aaaal

#2815000
0aaaaf
1aaaag
1aaaal

#2820000
0aaaag
0aaaal

#2825000
1aaaag
1aaaal

#2830000
0aaaag
0aaaal

#2835000
1aaaag
1aaaal

#2840000
0aaaag
b1000111 aaaai
0aaaal

#2845000
1aaaag
1aaaal

#2850000
0aaaag
0aaaal

#2855000
1aaaag
1aaaal

#2860000
0aaaag
0aaaal

#2865000
1aaaag
1aaaal

#2870000
0aaaag
0aaaal

#2875000
1aaaag
1aaaal

#2880000
b11101 aaaaa
1aaaad
0aaaag
0aaaal

#2885000
b100000010 aaaac
1aaaaf
1aaaag
1aaaal

#2890000
0aaaad
0aaaag
0aaaal

#2895000
0aaaaf
1aaaag
1aaaal

#2900000
b100000000011101 aaaaa
1aaaad
0aaaag
0aaaal

#2905000
b100110001 aaaac
1aaaaf
1aaaag
1aaaal

#2910000
0aaaad
0aaaag
b100000010 aaaaj
b100110001 aaaak
0aaaal

#2915000
0aaaaf
1aaaag
1aaaal

#2920000
0aaaag
0aaaal

#2925000
1aaaag
1aaaal

#2930000
0aaaag
0aaaal

#2935000
1aaaag
1aaaal

#2940000
0aaaag
b101111 aaaai
0aaaal

#2945000
1aaaag
1aaaal

#2950000
0aaaag
0aaaal

#2955000
1aaaag
1aaaal

#2960000
0aaaag
0aaaal

#2965000
1aaaag
1aaaal

#2970000
0aaaag
0aaaal

#2975000
1aaaag
1aaaal

#2980000
b11110 aaaaa
1aaaad
0aaaag
0aaaal

#2985000
b101000 aaaac
1aaaaf
1aaaag
1aaaal

#2990000
0aaaad
0aaaag
0aaaal

#2995000
0aaaaf
1aaaag
1aaaal

#3000000
b100000000011110 aaaaa
1aaaad
0aaaag
0aaaal

#3005000
b101000001 aaaac
1aaaaf
1aaaag
1aaaal

#3010000
0aaaad
0aaaag
b101000 aaaaj
b101000001 aaaak
0aaaal

#3015000
0aaaaf
1aaaag
1aaaal

#3020000
0aaaag
0aaaal

#3025000
1aaaag
1aaaal

#3030000
0aaaag
0aaaal

#3035000
1aaaag
1aaaal

#3040000
0aaaag
b100011001 aaaai
0aaaal

#3045000
1aaaag
1aaaal

#3050000
0aaaag
0aaaal

#3055000
1aaaag
1aaaal

#3060000
0aaaag
0aaaal

#3065000
1aaaag
1aaaal

#3070000
0aaaag
0aaaal

#3075000
1aaaag
1aaaal

#3080000
b11111 aaaaa
1aaaad
0aaaag
0aaaal

#3085000
b1101011 aaaac
1aaaaf
1aaaag
1aaaal

#3090000
0aaaad
0aaaag
0aaaal

#3095000
0aaaaf
1aaaag
1aaaal

#3100000
b100000000011111 aaaaa
1aaaad
0aaaag
0aaaal

#3105000
b11011101 aaaac
1aaaaf
1aaaag
1aaaal

#3110000
0aaaad
0aaaag
b1101011 aaaaj
b11011101 aaaak
0aaaal

#3115000
0aaaaf
1aaaag
1aaaal

#3120000
0aaaag
0aaaal

#3125000
1aaaag
1aaaal

#3130000
0aaaag
0aaaal

#3135000
1aaaag
1aaaal

#3140000
0aaaag
b1110010 aaaai
0aaaal

#3145000
1aaaag
1aaaal

#3150000
0aaaag
0aaaal

#3155000
1aaaag
1aaaal

#3160000
0aaaag
0aaaal

#3165000
1aaaag
1aaaal

#3170000
0aaaag
0aaaal

#3175000
1aaaag
1aaaal

