Timed/WaveForm.vcd
$date
     Oct 13, 2020       21:48:55
$end

$version
 SystemC 2.3.2-Accellera --- Oct 15 2019 09:07:06
$end

$timescale
     1 ps
$end

$scope module SystemC $end
$var wire   32  aaaaa  addr [31:0]  $end
$var wire   32  aaaab  dataIn [31:0]  $end
$var wire   32  aaaac  dataOut [31:0]  $end
$var wire    1  aaaad  ren       $end
$var wire    1  aaaae  wen       $end
$var wire    1  aaaaf  ack       $end
$var wire    1  aaaag  clk       $end
$var wire   32  aaaah  SAD [31:0]  $end
$var wire   32  aaaai  sub [31:0]  $end
$var wire   32  aaaaj  a [31:0]  $end
$var wire   32  aaaak  b [31:0]  $end
$var wire   32  aaaal  MEM_DataOut [31:0]  $end
$var wire   32  aaaam  MEM_DataIn [31:0]  $end
$var wire    1  aaaan  SAD_clk       $end
$upscope $end
$enddefinitions  $end

$comment
All initial values are dumped below at time 0 sec = 0 timescale units.
$end

$dumpvars
b0 aaaaa
b0 aaaab
b0 aaaac
0aaaad
0aaaae
0aaaaf
0aaaag
b0 aaaah
b0 aaaai
b0 aaaaj
b0 aaaak
b0 aaaal
b0 aaaam
0aaaan
$end

#5000
1aaaag
1aaaan

#10000
0aaaag
0aaaan

#15000
1aaaag
1aaaan

#20000
0aaaag
0aaaan

#25000
1aaaag
1aaaan

#30000
1aaaad
0aaaag
0aaaan

#35000
1aaaaf
1aaaag
1aaaan

#40000
0aaaad
0aaaag
0aaaan

#45000
0aaaaf
1aaaag
1aaaan

#50000
b100000000000000 aaaaa
1aaaad
0aaaag
0aaaan

#55000
b10110101 aaaac
1aaaaf
1aaaag
b10110101 aaaal
1aaaan

#60000
0aaaad
0aaaag
b10110101 aaaak
0aaaan

#65000
0aaaaf
1aaaag
1aaaan

#70000
0aaaag
0aaaan

#75000
1aaaag
1aaaan

#80000
0aaaag
0aaaan

#85000
1aaaag
1aaaan

#90000
0aaaag
b10110101 aaaai
0aaaan

#95000
1aaaag
1aaaan

#100000
0aaaag
0aaaan

#105000
1aaaag
1aaaan

#110000
0aaaag
0aaaan

#115000
1aaaag
1aaaan

#120000
0aaaag
0aaaan

#125000
1aaaag
1aaaan

#130000
b1 aaaaa
1aaaad
0aaaag
0aaaan

#135000
b0 aaaac
1aaaaf
1aaaag
b0 aaaal
1aaaan

#140000
0aaaad
0aaaag
0aaaan

#145000
0aaaaf
1aaaag
1aaaan

#150000
b100000000000001 aaaaa
1aaaad
0aaaag
0aaaan

#155000
b100110101 aaaac
1aaaaf
1aaaag
b100110101 aaaal
1aaaan

#160000
0aaaad
0aaaag
b100110101 aaaak
0aaaan

#165000
0aaaaf
1aaaag
1aaaan

#170000
0aaaag
0aaaan

#175000
1aaaag
1aaaan

#180000
0aaaag
0aaaan

#185000
1aaaag
1aaaan

#190000
0aaaag
b100110101 aaaai
0aaaan

#195000
1aaaag
1aaaan

#200000
0aaaag
0aaaan

#205000
1aaaag
1aaaan

#210000
0aaaag
0aaaan

#215000
1aaaag
1aaaan

#220000
0aaaag
0aaaan

#225000
1aaaag
1aaaan

#230000
b10 aaaaa
1aaaad
0aaaag
0aaaan

#235000
b0 aaaac
1aaaaf
1aaaag
b0 aaaal
1aaaan

#240000
0aaaad
0aaaag
0aaaan

#245000
0aaaaf
1aaaag
1aaaan

#250000
b100000000000010 aaaaa
1aaaad
0aaaag
0aaaan

#255000
b101001111 aaaac
1aaaaf
1aaaag
b101001111 aaaal
1aaaan

#260000
0aaaad
0aaaag
b101001111 aaaak
0aaaan

#265000
0aaaaf
1aaaag
1aaaan

#270000
0aaaag
0aaaan

#275000
1aaaag
1aaaan

#280000
0aaaag
0aaaan

#285000
1aaaag
1aaaan

#290000
0aaaag
b101001111 aaaai
0aaaan

#295000
1aaaag
1aaaan

#300000
0aaaag
0aaaan

#305000
1aaaag
1aaaan

#310000
0aaaag
0aaaan

#315000
1aaaag
1aaaan

#320000
0aaaag
0aaaan

#325000
1aaaag
1aaaan

#330000
b11 aaaaa
1aaaad
0aaaag
0aaaan

#335000
b0 aaaac
1aaaaf
1aaaag
b0 aaaal
1aaaan

#340000
0aaaad
0aaaag
0aaaan

#345000
0aaaaf
1aaaag
1aaaan

#350000
b100000000000011 aaaaa
1aaaad
0aaaag
0aaaan

#355000
b10001010 aaaac
1aaaaf
1aaaag
b10001010 aaaal
1aaaan

#360000
0aaaad
0aaaag
b10001010 aaaak
0aaaan

#365000
0aaaaf
1aaaag
1aaaan

#370000
0aaaag
0aaaan

#375000
1aaaag
1aaaan

#380000
0aaaag
0aaaan

#385000
1aaaag
1aaaan

#390000
0aaaag
b10001010 aaaai
0aaaan

#395000
1aaaag
1aaaan

#400000
0aaaag
0aaaan

#405000
1aaaag
1aaaan

#410000
0aaaag
0aaaan

#415000
1aaaag
1aaaan

#420000
0aaaag
0aaaan

#425000
1aaaag
1aaaan

#430000
b100 aaaaa
1aaaad
0aaaag
0aaaan

#435000
b0 aaaac
1aaaaf
1aaaag
b0 aaaal
1aaaan

#440000
0aaaad
0aaaag
0aaaan

#445000
0aaaaf
1aaaag
1aaaan

#450000
b100000000000100 aaaaa
1aaaad
0aaaag
0aaaan

#455000
b100100100 aaaac
1aaaaf
1aaaag
b100100100 aaaal
1aaaan

#460000
0aaaad
0aaaag
b100100100 aaaak
0aaaan

#465000
0aaaaf
1aaaag
1aaaan

#470000
0aaaag
0aaaan

#475000
1aaaag
1aaaan

#480000
0aaaag
0aaaan

#485000
1aaaag
1aaaan

#490000
0aaaag
b100100100 aaaai
0aaaan

#495000
1aaaag
1aaaan

#500000
0aaaag
0aaaan

#505000
1aaaag
1aaaan

#510000
0aaaag
0aaaan

#515000
1aaaag
1aaaan

#520000
0aaaag
0aaaan

#525000
1aaaag
1aaaan

#530000
b101 aaaaa
1aaaad
0aaaag
0aaaan

#535000
b0 aaaac
1aaaaf
1aaaag
b0 aaaal
1aaaan

#540000
0aaaad
0aaaag
0aaaan

#545000
0aaaaf
1aaaag
1aaaan

#550000
b100000000000101 aaaaa
1aaaad
0aaaag
0aaaan

#555000
b11110001 aaaac
1aaaaf
1aaaag
b11110001 aaaal
1aaaan

#560000
0aaaad
0aaaag
b11110001 aaaak
0aaaan

#565000
0aaaaf
1aaaag
1aaaan

#570000
0aaaag
0aaaan

#575000
1aaaag
1aaaan

#580000
0aaaag
0aaaan

#585000
1aaaag
1aaaan

#590000
0aaaag
b11110001 aaaai
0aaaan

#595000
1aaaag
1aaaan

#600000
0aaaag
0aaaan

#605000
1aaaag
1aaaan

#610000
0aaaag
0aaaan

#615000
1aaaag
1aaaan

#620000
0aaaag
0aaaan

#625000
1aaaag
1aaaan

#630000
b110 aaaaa
1aaaad
0aaaag
0aaaan

#635000
b0 aaaac
1aaaaf
1aaaag
b0 aaaal
1aaaan

#640000
0aaaad
0aaaag
0aaaan

#645000
0aaaaf
1aaaag
1aaaan

#650000
b100000000000110 aaaaa
1aaaad
0aaaag
0aaaan

#655000
b101001010 aaaac
1aaaaf
1aaaag
b101001010 aaaal
1aaaan

#660000
0aaaad
0aaaag
b101001010 aaaak
0aaaan

#665000
0aaaaf
1aaaag
1aaaan

#670000
0aaaag
0aaaan

#675000
1aaaag
1aaaan

#680000
0aaaag
0aaaan

#685000
1aaaag
1aaaan

#690000
0aaaag
b101001010 aaaai
0aaaan

#695000
1aaaag
1aaaan

#700000
0aaaag
0aaaan

#705000
1aaaag
1aaaan

#710000
0aaaag
0aaaan

#715000
1aaaag
1aaaan

#720000
0aaaag
0aaaan

#725000
1aaaag
1aaaan

#730000
b111 aaaaa
1aaaad
0aaaag
0aaaan

#735000
b11000100 aaaac
1aaaaf
1aaaag
b11000100 aaaal
1aaaan

#740000
0aaaad
0aaaag
0aaaan

#745000
0aaaaf
1aaaag
1aaaan

#750000
b100000000000111 aaaaa
1aaaad
0aaaag
0aaaan

#755000
b100011011 aaaac
1aaaaf
1aaaag
b100011011 aaaal
1aaaan

#760000
0aaaad
0aaaag
b11000100 aaaaj
b100011011 aaaak
0aaaan

#765000
0aaaaf
1aaaag
1aaaan

#770000
0aaaag
0aaaan

#775000
1aaaag
1aaaan

#780000
0aaaag
0aaaan

#785000
1aaaag
1aaaan

#790000
0aaaag
b1010111 aaaai
0aaaan

#795000
1aaaag
1aaaan

#800000
0aaaag
0aaaan

#805000
1aaaag
1aaaan

#810000
0aaaag
0aaaan

#815000
1aaaag
1aaaan

#820000
0aaaag
0aaaan

#825000
1aaaag
1aaaan

#830000
b1000 aaaaa
1aaaad
0aaaag
0aaaan

#835000
b1110110 aaaac
1aaaaf
1aaaag
b1110110 aaaal
1aaaan

#840000
0aaaad
0aaaag
0aaaan

#845000
0aaaaf
1aaaag
1aaaan

#850000
b100000000001000 aaaaa
1aaaad
0aaaag
0aaaan

#855000
b11001101 aaaac
1aaaaf
1aaaag
b11001101 aaaal
1aaaan

#860000
0aaaad
0aaaag
b1110110 aaaaj
b11001101 aaaak
0aaaan

#865000
0aaaaf
1aaaag
1aaaan

#870000
0aaaag
0aaaan

#875000
1aaaag
1aaaan

#880000
0aaaag
0aaaan

#885000
1aaaag
1aaaan

#890000
0aaaag
0aaaan

#895000
1aaaag
1aaaan

#900000
0aaaag
0aaaan

#905000
1aaaag
1aaaan

#910000
0aaaag
0aaaan

#915000
1aaaag
1aaaan

#920000
0aaaag
0aaaan

#925000
1aaaag
1aaaan

#930000
b1001 aaaaa
1aaaad
0aaaag
0aaaan

#935000
b11100001 aaaac
1aaaaf
1aaaag
b11100001 aaaal
1aaaan

#940000
0aaaad
0aaaag
0aaaan

#945000
0aaaaf
1aaaag
1aaaan

#950000
b100000000001001 aaaaa
1aaaad
0aaaag
0aaaan

#955000
b100100100 aaaac
1aaaaf
1aaaag
b100100100 aaaal
1aaaan

#960000
0aaaad
0aaaag
b11100001 aaaaj
b100100100 aaaak
0aaaan

#965000
0aaaaf
1aaaag
1aaaan

#970000
0aaaag
0aaaan

#975000
1aaaag
1aaaan

#980000
0aaaag
0aaaan

#985000
1aaaag
1aaaan

#990000
0aaaag
b1000011 aaaai
0aaaan

#995000
1aaaag
1aaaan

#1000000
0aaaag
0aaaan

#1005000
1aaaag
1aaaan

#1010000
0aaaag
0aaaan

#1015000
1aaaag
1aaaan

#1020000
0aaaag
0aaaan

#1025000
1aaaag
1aaaan

#1030000
b1010 aaaaa
1aaaad
0aaaag
0aaaan

#1035000
b10011000 aaaac
1aaaaf
1aaaag
b10011000 aaaal
1aaaan

#1040000
0aaaad
0aaaag
0aaaan

#1045000
0aaaaf
1aaaag
1aaaan

#1050000
b100000000001010 aaaaa
1aaaad
0aaaag
0aaaan

#1055000
b101010101 aaaac
1aaaaf
1aaaag
b101010101 aaaal
1aaaan

#1060000
0aaaad
0aaaag
b10011000 aaaaj
b101010101 aaaak
0aaaan

#1065000
0aaaaf
1aaaag
1aaaan

#1070000
0aaaag
0aaaan

#1075000
1aaaag
1aaaan

#1080000
0aaaag
0aaaan

#1085000
1aaaag
1aaaan

#1090000
0aaaag
b10111101 aaaai
0aaaan

#1095000
1aaaag
1aaaan

#1100000
0aaaag
0aaaan

#1105000
1aaaag
1aaaan

#1110000
0aaaag
0aaaan

#1115000
1aaaag
1aaaan

#1120000
0aaaag
0aaaan

#1125000
1aaaag
1aaaan

#1130000
b1011 aaaaa
1aaaad
0aaaag
0aaaan

#1135000
b11011010 aaaac
1aaaaf
1aaaag
b11011010 aaaal
1aaaan

#1140000
0aaaad
0aaaag
0aaaan

#1145000
0aaaaf
1aaaag
1aaaan

#1150000
b100000000001011 aaaaa
1aaaad
0aaaag
0aaaan

#1155000
b100001111 aaaac
1aaaaf
1aaaag
b100001111 aaaal
1aaaan

#1160000
0aaaad
0aaaag
b11011010 aaaaj
b100001111 aaaak
0aaaan

#1165000
0aaaaf
1aaaag
1aaaan

#1170000
0aaaag
0aaaan

#1175000
1aaaag
1aaaan

#1180000
0aaaag
0aaaan

#1185000
1aaaag
1aaaan

#1190000
0aaaag
b110101 aaaai
0aaaan

#1195000
1aaaag
1aaaan

#1200000
0aaaag
0aaaan

#1205000
1aaaag
1aaaan

#1210000
0aaaag
0aaaan

#1215000
1aaaag
1aaaan

#1220000
0aaaag
0aaaan

#1225000
1aaaag
1aaaan

#1230000
b1100 aaaaa
1aaaad
0aaaag
0aaaan

#1235000
b10010101 aaaac
1aaaaf
1aaaag
b10010101 aaaal
1aaaan

#1240000
0aaaad
0aaaag
0aaaan

#1245000
0aaaaf
1aaaag
1aaaan

#1250000
b100000000001100 aaaaa
1aaaad
0aaaag
0aaaan

#1255000
b1101010 aaaac
1aaaaf
1aaaag
b1101010 aaaal
1aaaan

#1260000
0aaaad
0aaaag
b10010101 aaaaj
b1101010 aaaak
0aaaan

#1265000
0aaaaf
1aaaag
1aaaan

#1270000
0aaaag
0aaaan

#1275000
1aaaag
1aaaan

#1280000
0aaaag
b101011 aaaai
0aaaan

#1285000
1aaaag
1aaaan

#1290000
0aaaag
0aaaan

#1295000
1aaaag
1aaaan

#1300000
0aaaag
0aaaan

#1305000
1aaaag
1aaaan

#1310000
0aaaag
0aaaan

#1315000
1aaaag
1aaaan

#1320000
b1101 aaaaa
1aaaad
0aaaag
0aaaan

#1325000
b11011 aaaac
1aaaaf
1aaaag
b11011 aaaal
1aaaan

#1330000
0aaaad
0aaaag
0aaaan

#1335000
0aaaaf
1aaaag
1aaaan

#1340000
b100000000001101 aaaaa
1aaaad
0aaaag
0aaaan

#1345000
b10101101 aaaac
1aaaaf
1aaaag
b10101101 aaaal
1aaaan

#1350000
0aaaad
0aaaag
b11011 aaaaj
b10101101 aaaak
0aaaan

#1355000
0aaaaf
1aaaag
1aaaan

#1360000
0aaaag
0aaaan

#1365000
1aaaag
1aaaan

#1370000
0aaaag
0aaaan

#1375000
1aaaag
1aaaan

#1380000
0aaaag
b10010010 aaaai
0aaaan

#1385000
1aaaag
1aaaan

#1390000
0aaaag
0aaaan

#1395000
1aaaag
1aaaan

#1400000
0aaaag
0aaaan

#1405000
1aaaag
1aaaan

#1410000
0aaaag
0aaaan

#1415000
1aaaag
1aaaan

#1420000
b1110 aaaaa
1aaaad
0aaaag
0aaaan

#1425000
b11110111 aaaac
1aaaaf
1aaaag
b11110111 aaaal
1aaaan

#1430000
0aaaad
0aaaag
0aaaan

#1435000
0aaaaf
1aaaag
1aaaan

#1440000
b100000000001110 aaaaa
1aaaad
0aaaag
0aaaan

#1445000
b101011101 aaaac
1aaaaf
1aaaag
b101011101 aaaal
1aaaan

#1450000
0aaaad
0aaaag
b11110111 aaaaj
b101011101 aaaak
0aaaan

#1455000
0aaaaf
1aaaag
1aaaan

#1460000
0aaaag
0aaaan

#1465000
1aaaag
1aaaan

#1470000
0aaaag
0aaaan

#1475000
1aaaag
1aaaan

#1480000
0aaaag
b1100110 aaaai
0aaaan

#1485000
1aaaag
1aaaan

#1490000
0aaaag
0aaaan

#1495000
1aaaag
1aaaan

#1500000
0aaaag
0aaaan

#1505000
1aaaag
1aaaan

#1510000
0aaaag
0aaaan

#1515000
1aaaag
1aaaan

#1520000
b1111 aaaaa
1aaaad
0aaaag
0aaaan

#1525000
b11010000 aaaac
1aaaaf
1aaaag
b11010000 aaaal
1aaaan

#1530000
0aaaad
0aaaag
0aaaan

#1535000
0aaaaf
1aaaag
1aaaan

#1540000
b100000000001111 aaaaa
1aaaad
0aaaag
0aaaan

#1545000
b11110010 aaaac
1aaaaf
1aaaag
b11110010 aaaal
1aaaan

#1550000
0aaaad
0aaaag
b11010000 aaaaj
b11110010 aaaak
0aaaan

#1555000
0aaaaf
1aaaag
1aaaan

#1560000
0aaaag
0aaaan

#1565000
1aaaag
1aaaan

#1570000
0aaaag
0aaaan

#1575000
1aaaag
1aaaan

#1580000
0aaaag
b100010 aaaai
0aaaan

#1585000
1aaaag
1aaaan

#1590000
0aaaag
0aaaan

#1595000
1aaaag
1aaaan

#1600000
0aaaag
0aaaan

#1605000
1aaaag
1aaaan

#1610000
0aaaag
0aaaan

#1615000
1aaaag
1aaaan

#1620000
b10000 aaaaa
1aaaad
0aaaag
0aaaan

#1625000
b11110000 aaaac
1aaaaf
1aaaag
b11110000 aaaal
1aaaan

#1630000
0aaaad
0aaaag
0aaaan

#1635000
0aaaaf
1aaaag
1aaaan

#1640000
b100000000010000 aaaaa
1aaaad
0aaaag
0aaaan

#1645000
b100111010 aaaac
1aaaaf
1aaaag
b100111010 aaaal
1aaaan

#1650000
0aaaad
0aaaag
b11110000 aaaaj
b100111010 aaaak
0aaaan

#1655000
0aaaaf
1aaaag
1aaaan

#1660000
0aaaag
0aaaan

#1665000
1aaaag
1aaaan

#1670000
0aaaag
0aaaan

#1675000
1aaaag
1aaaan

#1680000
0aaaag
b1001010 aaaai
0aaaan

#1685000
1aaaag
1aaaan

#1690000
0aaaag
0aaaan

#1695000
1aaaag
1aaaan

#1700000
0aaaag
0aaaan

#1705000
1aaaag
1aaaan

#1710000
0aaaag
0aaaan

#1715000
1aaaag
1aaaan

#1720000
b10001 aaaaa
1aaaad
0aaaag
0aaaan

#1725000
b100000000 aaaac
1aaaaf
1aaaag
b100000000 aaaal
1aaaan

#1730000
0aaaad
0aaaag
0aaaan

#1735000
0aaaaf
1aaaag
1aaaan

#1740000
b100000000010001 aaaaa
1aaaad
0aaaag
0aaaan

#1745000
b100110010 aaaac
1aaaaf
1aaaag
b100110010 aaaal
1aaaan

#1750000
0aaaad
0aaaag
b100000000 aaaaj
b100110010 aaaak
0aaaan

#1755000
0aaaaf
1aaaag
1aaaan

#1760000
0aaaag
0aaaan

#1765000
1aaaag
1aaaan

#1770000
0aaaag
0aaaan

#1775000
1aaaag
1aaaan

#1780000
0aaaag
b110010 aaaai
0aaaan

#1785000
1aaaag
1aaaan

#1790000
0aaaag
0aaaan

#1795000
1aaaag
1aaaan

#1800000
0aaaag
0aaaan

#1805000
1aaaag
1aaaan

#1810000
0aaaag
0aaaan

#1815000
1aaaag
1aaaan

#1820000
b10010 aaaaa
1aaaad
0aaaag
0aaaan

#1825000
b11010001 aaaac
1aaaaf
1aaaag
b11010001 aaaal
1aaaan

#1830000
0aaaad
0aaaag
0aaaan

#1835000
0aaaaf
1aaaag
1aaaan

#1840000
b100000000010010 aaaaa
1aaaad
0aaaag
0aaaan

#1845000
b11010110 aaaac
1aaaaf
1aaaag
b11010110 aaaal
1aaaan

#1850000
0aaaad
0aaaag
b11010001 aaaaj
b11010110 aaaak
0aaaan

#1855000
0aaaaf
1aaaag
1aaaan

#1860000
0aaaag
0aaaan

#1865000
1aaaag
1aaaan

#1870000
0aaaag
0aaaan

#1875000
1aaaag
1aaaan

#1880000
0aaaag
b101 aaaai
0aaaan

#1885000
1aaaag
1aaaan

#1890000
0aaaag
0aaaan

#1895000
1aaaag
1aaaan

#1900000
0aaaag
0aaaan

#1905000
1aaaag
1aaaan

#1910000
0aaaag
0aaaan

#1915000
1aaaag
1aaaan

#1920000
b10011 aaaaa
1aaaad
0aaaag
0aaaan

#1925000
b11111011 aaaac
1aaaaf
1aaaag
b11111011 aaaal
1aaaan

#1930000
0aaaad
0aaaag
0aaaan

#1935000
0aaaaf
1aaaag
1aaaan

#1940000
b100000000010011 aaaaa
1aaaad
0aaaag
0aaaan

#1945000
b1101110 aaaac
1aaaaf
1aaaag
b1101110 aaaal
1aaaan

#1950000
0aaaad
0aaaag
b11111011 aaaaj
b1101110 aaaak
0aaaan

#1955000
0aaaaf
1aaaag
1aaaan

#1960000
0aaaag
0aaaan

#1965000
1aaaag
1aaaan

#1970000
0aaaag
b10001101 aaaai
0aaaan

#1975000
1aaaag
1aaaan

#1980000
0aaaag
0aaaan

#1985000
1aaaag
1aaaan

#1990000
0aaaag
0aaaan

#1995000
1aaaag
1aaaan

#2000000
0aaaag
0aaaan

#2005000
1aaaag
1aaaan

#2010000
b10100 aaaaa
1aaaad
0aaaag
0aaaan

#2015000
b1111111 aaaac
1aaaaf
1aaaag
b1111111 aaaal
1aaaan

#2020000
0aaaad
0aaaag
0aaaan

#2025000
0aaaaf
1aaaag
1aaaan

#2030000
b100000000010100 aaaaa
1aaaad
0aaaag
0aaaan

#2035000
b100010010 aaaac
1aaaaf
1aaaag
b100010010 aaaal
1aaaan

#2040000
0aaaad
0aaaag
b1111111 aaaaj
b100010010 aaaak
0aaaan

#2045000
0aaaaf
1aaaag
1aaaan

#2050000
0aaaag
0aaaan

#2055000
1aaaag
1aaaan

#2060000
0aaaag
0aaaan

#2065000
1aaaag
1aaaan

#2070000
0aaaag
b10010011 aaaai
0aaaan

#2075000
1aaaag
1aaaan

#2080000
0aaaag
0aaaan

#2085000
1aaaag
1aaaan

#2090000
0aaaag
0aaaan

#2095000
1aaaag
1aaaan

#2100000
0aaaag
0aaaan

#2105000
1aaaag
1aaaan

#2110000
b10101 aaaaa
1aaaad
0aaaag
0aaaan

#2115000
b11011011 aaaac
1aaaaf
1aaaag
b11011011 aaaal
1aaaan

#2120000
0aaaad
0aaaag
0aaaan

#2125000
0aaaaf
1aaaag
1aaaan

#2130000
b100000000010101 aaaaa
1aaaad
0aaaag
0aaaan

#2135000
b10011110 aaaac
1aaaaf
1aaaag
b10011110 aaaal
1aaaan

#2140000
0aaaad
0aaaag
b11011011 aaaaj
b10011110 aaaak
0aaaan

#2145000
0aaaaf
1aaaag
1aaaan

#2150000
0aaaag
0aaaan

#2155000
1aaaag
1aaaan

#2160000
0aaaag
b111101 aaaai
0aaaan

#2165000
1aaaag
1aaaan

#2170000
0aaaag
0aaaan

#2175000
1aaaag
1aaaan

#2180000
0aaaag
0aaaan

#2185000
1aaaag
1aaaan

#2190000
0aaaag
0aaaan

#2195000
1aaaag
1aaaan

#2200000
b10110 aaaaa
1aaaad
0aaaag
0aaaan

#2205000
b1110100 aaaac
1aaaaf
1aaaag
b1110100 aaaal
1aaaan

#2210000
0aaaad
0aaaag
0aaaan

#2215000
0aaaaf
1aaaag
1aaaan

#2220000
b100000000010110 aaaaa
1aaaad
0aaaag
0aaaan

#2225000
b10101001 aaaac
1aaaaf
1aaaag
b10101001 aaaal
1aaaan

#2230000
0aaaad
0aaaag
b1110100 aaaaj
b10101001 aaaak
0aaaan

#2235000
0aaaaf
1aaaag
1aaaan

#2240000
0aaaag
0aaaan

#2245000
1aaaag
1aaaan

#2250000
0aaaag
0aaaan

#2255000
1aaaag
1aaaan

#2260000
0aaaag
b110101 aaaai
0aaaan

#2265000
1aaaag
1aaaan

#2270000
0aaaag
0aaaan

#2275000
1aaaag
1aaaan

#2280000
0aaaag
0aaaan

#2285000
1aaaag
1aaaan

#2290000
0aaaag
0aaaan

#2295000
1aaaag
1aaaan

#2300000
b10111 aaaaa
1aaaad
0aaaag
0aaaan

#2305000
b11100111 aaaac
1aaaaf
1aaaag
b11100111 aaaal
1aaaan

#2310000
0aaaad
0aaaag
0aaaan

#2315000
0aaaaf
1aaaag
1aaaan

#2320000
b100000000010111 aaaaa
1aaaad
0aaaag
0aaaan

#2325000
b10110010 aaaac
1aaaaf
1aaaag
b10110010 aaaal
1aaaan

#2330000
0aaaad
0aaaag
b11100111 aaaaj
b10110010 aaaak
0aaaan

#2335000
0aaaaf
1aaaag
1aaaan

#2340000
0aaaag
0aaaan

#2345000
1aaaag
1aaaan

#2350000
0aaaag
0aaaan

#2355000
1aaaag
1aaaan

#2360000
0aaaag
0aaaan

#2365000
1aaaag
1aaaan

#2370000
0aaaag
0aaaan

#2375000
1aaaag
1aaaan

#2380000
0aaaag
0aaaan

#2385000
1aaaag
1aaaan

#2390000
b11000 aaaaa
1aaaad
0aaaag
0aaaan

#2395000
b101000 aaaac
1aaaaf
1aaaag
b101000 aaaal
1aaaan

#2400000
0aaaad
0aaaag
0aaaan

#2405000
0aaaaf
1aaaag
1aaaan

#2410000
b100000000011000 aaaaa
1aaaad
0aaaag
0aaaan

#2415000
b11000011 aaaac
1aaaaf
1aaaag
b11000011 aaaal
1aaaan

#2420000
0aaaad
0aaaag
b101000 aaaaj
b11000011 aaaak
0aaaan

#2425000
0aaaaf
1aaaag
1aaaan

#2430000
0aaaag
0aaaan

#2435000
1aaaag
1aaaan

#2440000
0aaaag
0aaaan

#2445000
1aaaag
1aaaan

#2450000
0aaaag
b10011011 aaaai
0aaaan

#2455000
1aaaag
1aaaan

#2460000
0aaaag
0aaaan

#2465000
1aaaag
1aaaan

#2470000
0aaaag
0aaaan

#2475000
1aaaag
1aaaan

#2480000
0aaaag
0aaaan

#2485000
1aaaag
1aaaan

#2490000
b11001 aaaaa
1aaaad
0aaaag
0aaaan

#2495000
b11000000 aaaac
1aaaaf
1aaaag
b11000000 aaaal
1aaaan

#2500000
0aaaad
0aaaag
0aaaan

#2505000
0aaaaf
1aaaag
1aaaan

#2510000
b100000000011001 aaaaa
1aaaad
0aaaag
0aaaan

#2515000
b100100101 aaaac
1aaaaf
1aaaag
b100100101 aaaal
1aaaan

#2520000
0aaaad
0aaaag
b11000000 aaaaj
b100100101 aaaak
0aaaan

#2525000
0aaaaf
1aaaag
1aaaan

#2530000
0aaaag
0aaaan

#2535000
1aaaag
1aaaan

#2540000
0aaaag
0aaaan

#2545000
1aaaag
1aaaan

#2550000
0aaaag
b1100101 aaaai
0aaaan

#2555000
1aaaag
1aaaan

#2560000
0aaaag
0aaaan

#2565000
1aaaag
1aaaan

#2570000
0aaaag
0aaaan

#2575000
1aaaag
1aaaan

#2580000
0aaaag
0aaaan

#2585000
1aaaag
1aaaan

#2590000
b11010 aaaaa
1aaaad
0aaaag
0aaaan

#2595000
b100000 aaaac
1aaaaf
1aaaag
b100000 aaaal
1aaaan

#2600000
0aaaad
0aaaag
0aaaan

#2605000
0aaaaf
1aaaag
1aaaan

#2610000
b100000000011010 aaaaa
1aaaad
0aaaag
0aaaan

#2615000
b101000111 aaaac
1aaaaf
1aaaag
b101000111 aaaal
1aaaan

#2620000
0aaaad
0aaaag
b100000 aaaaj
b101000111 aaaak
0aaaan

#2625000
0aaaaf
1aaaag
1aaaan

#2630000
0aaaag
0aaaan

#2635000
1aaaag
1aaaan

#2640000
0aaaag
0aaaan

#2645000
1aaaag
1aaaan

#2650000
0aaaag
b100100111 aaaai
0aaaan

#2655000
1aaaag
1aaaan

#2660000
0aaaag
0aaaan

#2665000
1aaaag
1aaaan

#2670000
0aaaag
0aaaan

#2675000
1aaaag
1aaaan

#2680000
0aaaag
0aaaan

#2685000
1aaaag
1aaaan

#2690000
b11011 aaaaa
1aaaad
0aaaag
0aaaan

#2695000
b11011110 aaaac
1aaaaf
1aaaag
b11011110 aaaal
1aaaan

#2700000
0aaaad
0aaaag
0aaaan

#2705000
0aaaaf
1aaaag
1aaaan

#2710000
b100000000011011 aaaaa
1aaaad
0aaaag
0aaaan

#2715000
b1101100 aaaac
1aaaaf
1aaaag
b1101100 aaaal
1aaaan

#2720000
0aaaad
0aaaag
b11011110 aaaaj
b1101100 aaaak
0aaaan

#2725000
0aaaaf
1aaaag
1aaaan

#2730000
0aaaag
0aaaan

#2735000
1aaaag
1aaaan

#2740000
0aaaag
b1110010 aaaai
0aaaan

#2745000
1aaaag
1aaaan

#2750000
0aaaag
0aaaan

#2755000
1aaaag
1aaaan

#2760000
0aaaag
0aaaan

#2765000
1aaaag
1aaaan

#2770000
0aaaag
0aaaan

#2775000
1aaaag
1aaaan

#2780000
b11100 aaaaa
1aaaad
0aaaag
0aaaan

#2785000
b1101010 aaaac
1aaaaf
1aaaag
b1101010 aaaal
1aaaan

#2790000
0aaaad
0aaaag
0aaaan

#2795000
0aaaaf
1aaaag
1aaaan

#2800000
b100000000011100 aaaaa
1aaaad
0aaaag
0aaaan

#2805000
b10110001 aaaac
1aaaaf
1aaaag
b10110001 aaaal
1aaaan

#2810000
0aaaad
0aaaag
b1101010 aaaaj
b10110001 aaaak
0aaaan

#2815000
0aaaaf
1aaaag
1aaaan

#2820000
0aaaag
0aaaan

#2825000
1aaaag
1aaaan

#2830000
0aaaag
0aaaan

#2835000
1aaaag
1aaaan

#2840000
0aaaag
b1000111 aaaai
0aaaan

#2845000
1aaaag
1aaaan

#2850000
0aaaag
0aaaan

#2855000
1aaaag
1aaaan

#2860000
0aaaag
0aaaan

#2865000
1aaaag
1aaaan

#2870000
0aaaag
0aaaan

#2875000
1aaaag
1aaaan

#2880000
b11101 aaaaa
1aaaad
0aaaag
0aaaan

#2885000
b100000010 aaaac
1aaaaf
1aaaag
b100000010 aaaal
1aaaan

#2890000
0aaaad
0aaaag
0aaaan

#2895000
0aaaaf
1aaaag
1aaaan

#2900000
b100000000011101 aaaaa
1aaaad
0aaaag
0aaaan

#2905000
b100110001 aaaac
1aaaaf
1aaaag
b100110001 aaaal
1aaaan

#2910000
0aaaad
0aaaag
b100000010 aaaaj
b100110001 aaaak
0aaaan

#2915000
0aaaaf
1aaaag
1aaaan

#2920000
0aaaag
0aaaan

#2925000
1aaaag
1aaaan

#2930000
0aaaag
0aaaan

#2935000
1aaaag
1aaaan

#2940000
0aaaag
b101111 aaaai
0aaaan

#2945000
1aaaag
1aaaan

#2950000
0aaaag
0aaaan

#2955000
1aaaag
1aaaan

#2960000
0aaaag
0aaaan

#2965000
1aaaag
1aaaan

#2970000
0aaaag
0aaaan

#2975000
1aaaag
1aaaan

#2980000
b11110 aaaaa
1aaaad
0aaaag
0aaaan

#2985000
b101000 aaaac
1aaaaf
1aaaag
b101000 aaaal
1aaaan

#2990000
0aaaad
0aaaag
0aaaan

#2995000
0aaaaf
1aaaag
1aaaan

#3000000
b100000000011110 aaaaa
1aaaad
0aaaag
0aaaan

#3005000
b101000001 aaaac
1aaaaf
1aaaag
b101000001 aaaal
1aaaan

#3010000
0aaaad
0aaaag
b101000 aaaaj
b101000001 aaaak
0aaaan

#3015000
0aaaaf
1aaaag
1aaaan

#3020000
0aaaag
0aaaan

