Timed/WaveForm.vcd
$date
     Oct 12, 2020       23:45:08
$end

$version
 SystemC 2.3.2-Accellera --- Oct 15 2019 09:07:06
$end

$timescale
     1 ps
$end

$scope module SystemC $end
$var wire   32  aaaaa  addr [31:0]  $end
$var wire   32  aaaab  dataIn [31:0]  $end
$var wire   32  aaaac  dataOut [31:0]  $end
$var wire    1  aaaad  ren       $end
$var wire    1  aaaae  wen       $end
$var wire    1  aaaaf  ack       $end
$var wire    1  aaaag  clk       $end
$upscope $end
$enddefinitions  $end

$comment
All initial values are dumped below at time 0 sec = 0 timescale units.
$end

$dumpvars
b0 aaaaa
b0 aaaab
b0 aaaac
0aaaad
0aaaae
0aaaaf
0aaaag
$end

#5000
1aaaag

#10000
0aaaag

#15000
1aaaag

#20000
1aaaad
0aaaag

#25000
1aaaaf
1aaaag

#30000
0aaaad
0aaaag

#35000
0aaaaf
1aaaag

#40000
b100000000000000 aaaaa
1aaaad
0aaaag

#45000
b10110101 aaaac
1aaaaf
1aaaag

#50000
0aaaad
0aaaag

#55000
0aaaaf
1aaaag

#60000
0aaaag

#65000
1aaaag

#70000
0aaaag

#75000
1aaaag

#80000
0aaaag

#85000
1aaaag

#90000
0aaaag

#95000
1aaaag

#100000
0aaaag

#105000
1aaaag

#110000
b1 aaaaa
1aaaad
0aaaag

#115000
b0 aaaac
1aaaaf
1aaaag

#120000
0aaaad
0aaaag

#125000
0aaaaf
1aaaag

#130000
b100000000000001 aaaaa
1aaaad
0aaaag

#135000
b100110101 aaaac
1aaaaf
1aaaag

#140000
0aaaad
0aaaag

#145000
0aaaaf
1aaaag

#150000
0aaaag

#155000
1aaaag

#160000
0aaaag

#165000
1aaaag

#170000
0aaaag

#175000
1aaaag

#180000
0aaaag

#185000
1aaaag

#190000
0aaaag

#195000
1aaaag

#200000
b10 aaaaa
1aaaad
0aaaag

#205000
b0 aaaac
1aaaaf
1aaaag

#210000
0aaaad
0aaaag

#215000
0aaaaf
1aaaag

#220000
b100000000000010 aaaaa
1aaaad
0aaaag

#225000
b101001111 aaaac
1aaaaf
1aaaag

#230000
0aaaad
0aaaag

#235000
0aaaaf
1aaaag

#240000
0aaaag

#245000
1aaaag

#250000
0aaaag

#255000
1aaaag

#260000
0aaaag

#265000
1aaaag

#270000
0aaaag

#275000
1aaaag

#280000
0aaaag

#285000
1aaaag

#290000
b11 aaaaa
1aaaad
0aaaag

#295000
b0 aaaac
1aaaaf
1aaaag

#300000
0aaaad
0aaaag

#305000
0aaaaf
1aaaag

#310000
b100000000000011 aaaaa
1aaaad
0aaaag

#315000
b10001010 aaaac
1aaaaf
1aaaag

#320000
0aaaad
0aaaag

#325000
0aaaaf
1aaaag

#330000
0aaaag

#335000
1aaaag

#340000
0aaaag

#345000
1aaaag

#350000
0aaaag

#355000
1aaaag

#360000
0aaaag

#365000
1aaaag

#370000
0aaaag

#375000
1aaaag

#380000
b100 aaaaa
1aaaad
0aaaag

#385000
b0 aaaac
1aaaaf
1aaaag

#390000
0aaaad
0aaaag

#395000
0aaaaf
1aaaag

#400000
b100000000000100 aaaaa
1aaaad
0aaaag

#405000
b100100100 aaaac
1aaaaf
1aaaag

#410000
0aaaad
0aaaag

#415000
0aaaaf
1aaaag

#420000
0aaaag

#425000
1aaaag

#430000
0aaaag

#435000
1aaaag

#440000
0aaaag

#445000
1aaaag

#450000
0aaaag

#455000
1aaaag

#460000
0aaaag

#465000
1aaaag

#470000
b101 aaaaa
1aaaad
0aaaag

#475000
b0 aaaac
1aaaaf
1aaaag

#480000
0aaaad
0aaaag

#485000
0aaaaf
1aaaag

#490000
b100000000000101 aaaaa
1aaaad
0aaaag

#495000
b11110001 aaaac
1aaaaf
1aaaag

#500000
0aaaad
0aaaag

#505000
0aaaaf
1aaaag

#510000
0aaaag

#515000
1aaaag

#520000
0aaaag

#525000
1aaaag

#530000
0aaaag

#535000
1aaaag

#540000
0aaaag

#545000
1aaaag

#550000
0aaaag

#555000
1aaaag

#560000
b110 aaaaa
1aaaad
0aaaag

#565000
b0 aaaac
1aaaaf
1aaaag

#570000
0aaaad
0aaaag

#575000
0aaaaf
1aaaag

#580000
b100000000000110 aaaaa
1aaaad
0aaaag

#585000
b101001010 aaaac
1aaaaf
1aaaag

#590000
0aaaad
0aaaag

#595000
0aaaaf
1aaaag

#600000
0aaaag

#605000
1aaaag

#610000
0aaaag

#615000
1aaaag

#620000
0aaaag

#625000
1aaaag

#630000
0aaaag

#635000
1aaaag

#640000
0aaaag

#645000
1aaaag

#650000
b111 aaaaa
1aaaad
0aaaag

#655000
b11000100 aaaac
1aaaaf
1aaaag

#660000
0aaaad
0aaaag

#665000
0aaaaf
1aaaag

#670000
b100000000000111 aaaaa
1aaaad
0aaaag

#675000
b100011011 aaaac
1aaaaf
1aaaag

#680000
0aaaad
0aaaag

#685000
0aaaaf
1aaaag

#690000
0aaaag

#695000
1aaaag

#700000
0aaaag

#705000
1aaaag

#710000
0aaaag

#715000
1aaaag

#720000
0aaaag

#725000
1aaaag

#730000
0aaaag

#735000
1aaaag

#740000
b1000 aaaaa
1aaaad
0aaaag

#745000
b1110110 aaaac
1aaaaf
1aaaag

#750000
0aaaad
0aaaag

#755000
0aaaaf
1aaaag

#760000
b100000000001000 aaaaa
1aaaad
0aaaag

#765000
b11001101 aaaac
1aaaaf
1aaaag

#770000
0aaaad
0aaaag

#775000
0aaaaf
1aaaag

#780000
0aaaag

#785000
1aaaag

#790000
0aaaag

#795000
1aaaag

#800000
0aaaag

#805000
1aaaag

#810000
0aaaag

#815000
1aaaag

#820000
0aaaag

#825000
1aaaag

#830000
b1001 aaaaa
1aaaad
0aaaag

#835000
b11100001 aaaac
1aaaaf
1aaaag

#840000
0aaaad
0aaaag

#845000
0aaaaf
1aaaag

#850000
b100000000001001 aaaaa
1aaaad
0aaaag

#855000
b100100100 aaaac
1aaaaf
1aaaag

#860000
0aaaad
0aaaag

#865000
0aaaaf
1aaaag

#870000
0aaaag

#875000
1aaaag

#880000
0aaaag

#885000
1aaaag

#890000
0aaaag

#895000
1aaaag

#900000
0aaaag

#905000
1aaaag

#910000
0aaaag

#915000
1aaaag

#920000
b1010 aaaaa
1aaaad
0aaaag

#925000
b10011000 aaaac
1aaaaf
1aaaag

#930000
0aaaad
0aaaag

#935000
0aaaaf
1aaaag

#940000
b100000000001010 aaaaa
1aaaad
0aaaag

#945000
b101010101 aaaac
1aaaaf
1aaaag

#950000
0aaaad
0aaaag

#955000
0aaaaf
1aaaag

#960000
0aaaag

#965000
1aaaag

#970000
0aaaag

#975000
1aaaag

#980000
0aaaag

#985000
1aaaag

#990000
0aaaag

#995000
1aaaag

#1000000
0aaaag

#1005000
1aaaag

#1010000
b1011 aaaaa
1aaaad
0aaaag

#1015000
b11011010 aaaac
1aaaaf
1aaaag

#1020000
0aaaad
0aaaag

#1025000
0aaaaf
1aaaag

#1030000
b100000000001011 aaaaa
1aaaad
0aaaag

#1035000
b100001111 aaaac
1aaaaf
1aaaag

#1040000
0aaaad
0aaaag

#1045000
0aaaaf
1aaaag

#1050000
0aaaag

#1055000
1aaaag

#1060000
0aaaag

#1065000
1aaaag

#1070000
0aaaag

#1075000
1aaaag

#1080000
0aaaag

#1085000
1aaaag

#1090000
0aaaag

#1095000
1aaaag

#1100000
b1100 aaaaa
1aaaad
0aaaag

#1105000
b10010101 aaaac
1aaaaf
1aaaag

#1110000
0aaaad
0aaaag

#1115000
0aaaaf
1aaaag

#1120000
b100000000001100 aaaaa
1aaaad
0aaaag

#1125000
b1101010 aaaac
1aaaaf
1aaaag

#1130000
0aaaad
0aaaag

#1135000
0aaaaf
1aaaag

#1140000
0aaaag

#1145000
1aaaag

#1150000
0aaaag

#1155000
1aaaag

#1160000
0aaaag

#1165000
1aaaag

#1170000
0aaaag

#1175000
1aaaag

#1180000
0aaaag

#1185000
1aaaag

#1190000
b1101 aaaaa
1aaaad
0aaaag

#1195000
b11011 aaaac
1aaaaf
1aaaag

#1200000
0aaaad
0aaaag

#1205000
0aaaaf
1aaaag

#1210000
b100000000001101 aaaaa
1aaaad
0aaaag

#1215000
b10101101 aaaac
1aaaaf
1aaaag

#1220000
0aaaad
0aaaag

#1225000
0aaaaf
1aaaag

#1230000
0aaaag

#1235000
1aaaag

#1240000
0aaaag

#1245000
1aaaag

#1250000
0aaaag

#1255000
1aaaag

#1260000
0aaaag

#1265000
1aaaag

#1270000
0aaaag

#1275000
1aaaag

#1280000
b1110 aaaaa
1aaaad
0aaaag

#1285000
b11110111 aaaac
1aaaaf
1aaaag

#1290000
0aaaad
0aaaag

#1295000
0aaaaf
1aaaag

#1300000
b100000000001110 aaaaa
1aaaad
0aaaag

#1305000
b101011101 aaaac
1aaaaf
1aaaag

#1310000
0aaaad
0aaaag

#1315000
0aaaaf
1aaaag

#1320000
0aaaag

#1325000
1aaaag

#1330000
0aaaag

#1335000
1aaaag

#1340000
0aaaag

#1345000
1aaaag

#1350000
0aaaag

#1355000
1aaaag

#1360000
0aaaag

#1365000
1aaaag

#1370000
b1111 aaaaa
1aaaad
0aaaag

#1375000
b11010000 aaaac
1aaaaf
1aaaag

#1380000
0aaaad
0aaaag

#1385000
0aaaaf
1aaaag

#1390000
b100000000001111 aaaaa
1aaaad
0aaaag

#1395000
b11110010 aaaac
1aaaaf
1aaaag

#1400000
0aaaad
0aaaag

#1405000
0aaaaf
1aaaag

#1410000
0aaaag

#1415000
1aaaag

#1420000
0aaaag

#1425000
1aaaag

#1430000
0aaaag

#1435000
1aaaag

#1440000
0aaaag

#1445000
1aaaag

#1450000
0aaaag

#1455000
1aaaag

#1460000
b10000 aaaaa
1aaaad
0aaaag

#1465000
b11110000 aaaac
1aaaaf
1aaaag

#1470000
0aaaad
0aaaag

#1475000
0aaaaf
1aaaag

#1480000
b100000000010000 aaaaa
1aaaad
0aaaag

#1485000
b100111010 aaaac
1aaaaf
1aaaag

#1490000
0aaaad
0aaaag

#1495000
0aaaaf
1aaaag

#1500000
0aaaag

#1505000
1aaaag

#1510000
0aaaag

#1515000
1aaaag

#1520000
0aaaag

#1525000
1aaaag

#1530000
0aaaag

#1535000
1aaaag

#1540000
0aaaag

#1545000
1aaaag

#1550000
b10001 aaaaa
1aaaad
0aaaag

#1555000
b100000000 aaaac
1aaaaf
1aaaag

#1560000
0aaaad
0aaaag

#1565000
0aaaaf
1aaaag

#1570000
b100000000010001 aaaaa
1aaaad
0aaaag

#1575000
b100110010 aaaac
1aaaaf
1aaaag

#1580000
0aaaad
0aaaag

#1585000
0aaaaf
1aaaag

#1590000
0aaaag

#1595000
1aaaag

#1600000
0aaaag

#1605000
1aaaag

#1610000
0aaaag

#1615000
1aaaag

#1620000
0aaaag

#1625000
1aaaag

#1630000
0aaaag

#1635000
1aaaag

#1640000
b10010 aaaaa
1aaaad
0aaaag

#1645000
b11010001 aaaac
1aaaaf
1aaaag

#1650000
0aaaad
0aaaag

#1655000
0aaaaf
1aaaag

#1660000
b100000000010010 aaaaa
1aaaad
0aaaag

#1665000
b11010110 aaaac
1aaaaf
1aaaag

#1670000
0aaaad
0aaaag

#1675000
0aaaaf
1aaaag

#1680000
0aaaag

#1685000
1aaaag

#1690000
0aaaag

#1695000
1aaaag

#1700000
0aaaag

#1705000
1aaaag

#1710000
0aaaag

#1715000
1aaaag

#1720000
0aaaag

#1725000
1aaaag

#1730000
b10011 aaaaa
1aaaad
0aaaag

#1735000
b11111011 aaaac
1aaaaf
1aaaag

#1740000
0aaaad
0aaaag

#1745000
0aaaaf
1aaaag

#1750000
b100000000010011 aaaaa
1aaaad
0aaaag

#1755000
b1101110 aaaac
1aaaaf
1aaaag

#1760000
0aaaad
0aaaag

#1765000
0aaaaf
1aaaag

#1770000
0aaaag

#1775000
1aaaag

#1780000
0aaaag

#1785000
1aaaag

#1790000
0aaaag

#1795000
1aaaag

#1800000
0aaaag

#1805000
1aaaag

#1810000
0aaaag

#1815000
1aaaag

#1820000
b10100 aaaaa
1aaaad
0aaaag

#1825000
b1111111 aaaac
1aaaaf
1aaaag

#1830000
0aaaad
0aaaag

#1835000
0aaaaf
1aaaag

#1840000
b100000000010100 aaaaa
1aaaad
0aaaag

#1845000
b100010010 aaaac
1aaaaf
1aaaag

#1850000
0aaaad
0aaaag

#1855000
0aaaaf
1aaaag

#1860000
0aaaag

#1865000
1aaaag

#1870000
0aaaag

#1875000
1aaaag

#1880000
0aaaag

#1885000
1aaaag

#1890000
0aaaag

#1895000
1aaaag

#1900000
0aaaag

#1905000
1aaaag

#1910000
b10101 aaaaa
1aaaad
0aaaag

#1915000
b11011011 aaaac
1aaaaf
1aaaag

#1920000
0aaaad
0aaaag

#1925000
0aaaaf
1aaaag

#1930000
b100000000010101 aaaaa
1aaaad
0aaaag

#1935000
b10011110 aaaac
1aaaaf
1aaaag

#1940000
0aaaad
0aaaag

#1945000
0aaaaf
1aaaag

#1950000
0aaaag

#1955000
1aaaag

#1960000
0aaaag

#1965000
1aaaag

#1970000
0aaaag

#1975000
1aaaag

#1980000
0aaaag

#1985000
1aaaag

#1990000
0aaaag

#1995000
1aaaag

#2000000
b10110 aaaaa
1aaaad
0aaaag

#2005000
b1110100 aaaac
1aaaaf
1aaaag

#2010000
0aaaad
0aaaag

#2015000
0aaaaf
1aaaag

#2020000
b100000000010110 aaaaa
1aaaad
0aaaag

#2025000
b10101001 aaaac
1aaaaf
1aaaag

#2030000
0aaaad
0aaaag

#2035000
0aaaaf
1aaaag

#2040000
0aaaag

#2045000
1aaaag

#2050000
0aaaag

#2055000
1aaaag

#2060000
0aaaag

#2065000
1aaaag

#2070000
0aaaag

#2075000
1aaaag

#2080000
0aaaag

#2085000
1aaaag

#2090000
b10111 aaaaa
1aaaad
0aaaag

#2095000
b11100111 aaaac
1aaaaf
1aaaag

#2100000
0aaaad
0aaaag

#2105000
0aaaaf
1aaaag

#2110000
b100000000010111 aaaaa
1aaaad
0aaaag

#2115000
b10110010 aaaac
1aaaaf
1aaaag

#2120000
0aaaad
0aaaag

#2125000
0aaaaf
1aaaag

#2130000
0aaaag

#2135000
1aaaag

#2140000
0aaaag

#2145000
1aaaag

#2150000
0aaaag

#2155000
1aaaag

#2160000
0aaaag

#2165000
1aaaag

#2170000
0aaaag

#2175000
1aaaag

#2180000
b11000 aaaaa
1aaaad
0aaaag

#2185000
b101000 aaaac
1aaaaf
1aaaag

#2190000
0aaaad
0aaaag

#2195000
0aaaaf
1aaaag

#2200000
b100000000011000 aaaaa
1aaaad
0aaaag

#2205000
b11000011 aaaac
1aaaaf
1aaaag

#2210000
0aaaad
0aaaag

#2215000
0aaaaf
1aaaag

#2220000
0aaaag

#2225000
1aaaag

#2230000
0aaaag

#2235000
1aaaag

#2240000
0aaaag

#2245000
1aaaag

#2250000
0aaaag

#2255000
1aaaag

#2260000
0aaaag

#2265000
1aaaag

#2270000
b11001 aaaaa
1aaaad
0aaaag

#2275000
b11000000 aaaac
1aaaaf
1aaaag

#2280000
0aaaad
0aaaag

#2285000
0aaaaf
1aaaag

#2290000
b100000000011001 aaaaa
1aaaad
0aaaag

#2295000
b100100101 aaaac
1aaaaf
1aaaag

#2300000
0aaaad
0aaaag

#2305000
0aaaaf
1aaaag

#2310000
0aaaag

#2315000
1aaaag

#2320000
0aaaag

#2325000
1aaaag

#2330000
0aaaag

#2335000
1aaaag

#2340000
0aaaag

#2345000
1aaaag

#2350000
0aaaag

#2355000
1aaaag

#2360000
b11010 aaaaa
1aaaad
0aaaag

#2365000
b100000 aaaac
1aaaaf
1aaaag

#2370000
0aaaad
0aaaag

#2375000
0aaaaf
1aaaag

#2380000
b100000000011010 aaaaa
1aaaad
0aaaag

#2385000
b101000111 aaaac
1aaaaf
1aaaag

#2390000
0aaaad
0aaaag

#2395000
0aaaaf
1aaaag

#2400000
0aaaag

#2405000
1aaaag

#2410000
0aaaag

#2415000
1aaaag

#2420000
0aaaag

#2425000
1aaaag

#2430000
0aaaag

#2435000
1aaaag

#2440000
0aaaag

#2445000
1aaaag

#2450000
b11011 aaaaa
1aaaad
0aaaag

#2455000
b11011110 aaaac
1aaaaf
1aaaag

#2460000
0aaaad
0aaaag

#2465000
0aaaaf
1aaaag

#2470000
b100000000011011 aaaaa
1aaaad
0aaaag

#2475000
b1101100 aaaac
1aaaaf
1aaaag

#2480000
0aaaad
0aaaag

#2485000
0aaaaf
1aaaag

#2490000
0aaaag

#2495000
1aaaag

#2500000
0aaaag

#2505000
1aaaag

#2510000
0aaaag

#2515000
1aaaag

#2520000
0aaaag

#2525000
1aaaag

#2530000
0aaaag

#2535000
1aaaag

#2540000
b11100 aaaaa
1aaaad
0aaaag

#2545000
b1101010 aaaac
1aaaaf
1aaaag

#2550000
0aaaad
0aaaag

#2555000
0aaaaf
1aaaag

#2560000
b100000000011100 aaaaa
1aaaad
0aaaag

#2565000
b10110001 aaaac
1aaaaf
1aaaag

#2570000
0aaaad
0aaaag

#2575000
0aaaaf
1aaaag

#2580000
0aaaag

#2585000
1aaaag

#2590000
0aaaag

#2595000
1aaaag

#2600000
0aaaag

#2605000
1aaaag

#2610000
0aaaag

#2615000
1aaaag

#2620000
0aaaag

#2625000
1aaaag

#2630000
b11101 aaaaa
1aaaad
0aaaag

#2635000
b100000010 aaaac
1aaaaf
1aaaag

#2640000
0aaaad
0aaaag

#2645000
0aaaaf
1aaaag

#2650000
b100000000011101 aaaaa
1aaaad
0aaaag

#2655000
b100110001 aaaac
1aaaaf
1aaaag

#2660000
0aaaad
0aaaag

#2665000
0aaaaf
1aaaag

#2670000
0aaaag

#2675000
1aaaag

#2680000
0aaaag

#2685000
1aaaag

#2690000
0aaaag

#2695000
1aaaag

#2700000
0aaaag

#2705000
1aaaag

#2710000
0aaaag

#2715000
1aaaag

#2720000
b11110 aaaaa
1aaaad
0aaaag

#2725000
b101000 aaaac
1aaaaf
1aaaag

#2730000
0aaaad
0aaaag

#2735000
0aaaaf
1aaaag

#2740000
b100000000011110 aaaaa
1aaaad
0aaaag

#2745000
b101000001 aaaac
1aaaaf
1aaaag

#2750000
0aaaad
0aaaag

#2755000
0aaaaf
1aaaag

#2760000
0aaaag

#2765000
1aaaag

#2770000
0aaaag

#2775000
1aaaag

#2780000
0aaaag

#2785000
1aaaag

#2790000
0aaaag

#2795000
1aaaag

#2800000
0aaaag

#2805000
1aaaag

#2810000
b11111 aaaaa
1aaaad
0aaaag

#2815000
b1101011 aaaac
1aaaaf
1aaaag

#2820000
0aaaad
0aaaag

#2825000
0aaaaf
1aaaag

#2830000
b100000000011111 aaaaa
1aaaad
0aaaag

#2835000
b11011101 aaaac
1aaaaf
1aaaag

#2840000
0aaaad
0aaaag

#2845000
0aaaaf
1aaaag

#2850000
0aaaag

#2855000
1aaaag

#2860000
0aaaag

#2865000
1aaaag

#2870000
0aaaag

#2875000
1aaaag

#2880000
0aaaag

#2885000
1aaaag

#2890000
0aaaag

#2895000
1aaaag

#2900000
b100000 aaaaa
1aaaad
0aaaag

#2905000
b11111000 aaaac
1aaaaf
1aaaag

#2910000
0aaaad
0aaaag

#2915000
0aaaaf
1aaaag

#2920000
b100000000100000 aaaaa
1aaaad
0aaaag

#2925000
b11111111 aaaac
1aaaaf
1aaaag

#2930000
0aaaad
0aaaag

#2935000
0aaaaf
1aaaag

#2940000
0aaaag

#2945000
1aaaag

#2950000
0aaaag

#2955000
1aaaag

#2960000
0aaaag

#2965000
1aaaag

#2970000
0aaaag

#2975000
1aaaag

#2980000
0aaaag

#2985000
1aaaag

#2990000
b100001 aaaaa
1aaaad
0aaaag

#2995000
b1110011 aaaac
1aaaaf
1aaaag

#3000000
0aaaad
0aaaag

#3005000
0aaaaf
1aaaag

#3010000
b100000000100001 aaaaa
1aaaad
0aaaag

#3015000
b10110001 aaaac
1aaaaf
1aaaag

#3020000
0aaaad
0aaaag

#3025000
0aaaaf
1aaaag

#3030000
0aaaag

#3035000
1aaaag

#3040000
0aaaag

#3045000
1aaaag

#3050000
0aaaag

#3055000
1aaaag

#3060000
0aaaag

#3065000
1aaaag

#3070000
0aaaag

#3075000
1aaaag

#3080000
b100010 aaaaa
1aaaad
0aaaag

#3085000
b1000010 aaaac
1aaaaf
1aaaag

#3090000
0aaaad
0aaaag

#3095000
0aaaaf
1aaaag

#3100000
b100000000100010 aaaaa
1aaaad
0aaaag

#3105000
b11010110 aaaac
1aaaaf
1aaaag

#3110000
0aaaad
0aaaag

#3115000
0aaaaf
1aaaag

#3120000
0aaaag

#3125000
1aaaag

#3130000
0aaaag

#3135000
1aaaag

#3140000
0aaaag

#3145000
1aaaag

#3150000
0aaaag

#3155000
1aaaag

#3160000
0aaaag

#3165000
1aaaag

#3170000
b100011 aaaaa
1aaaad
0aaaag

#3175000
b111100 aaaac
1aaaaf
1aaaag

#3180000
0aaaad
0aaaag

#3185000
0aaaaf
1aaaag

#3190000
b100000000100011 aaaaa
1aaaad
0aaaag

#3195000
b100101101 aaaac
1aaaaf
1aaaag

#3200000
0aaaad
0aaaag

#3205000
0aaaaf
1aaaag

#3210000
0aaaag

#3215000
1aaaag

#3220000
0aaaag

#3225000
1aaaag

#3230000
0aaaag

#3235000
1aaaag

#3240000
0aaaag

#3245000
1aaaag

#3250000
0aaaag

#3255000
1aaaag

#3260000
b100100 aaaaa
1aaaad
0aaaag

#3265000
b11011 aaaac
1aaaaf
1aaaag

#3270000
0aaaad
0aaaag

#3275000
0aaaaf
1aaaag

#3280000
b100000000100100 aaaaa
1aaaad
0aaaag

#3285000
b100001010 aaaac
1aaaaf
1aaaag

#3290000
0aaaad
0aaaag

#3295000
0aaaaf
1aaaag

#3300000
0aaaag

#3305000
1aaaag

#3310000
0aaaag

#3315000
1aaaag

#3320000
0aaaag

#3325000
1aaaag

#3330000
0aaaag

#3335000
1aaaag

#3340000
0aaaag

#3345000
1aaaag

#3350000
b100101 aaaaa
1aaaad
0aaaag

#3355000
b11100100 aaaac
1aaaaf
1aaaag

#3360000
0aaaad
0aaaag

#3365000
0aaaaf
1aaaag

#3370000
b100000000100101 aaaaa
1aaaad
0aaaag

#3375000
b101100001 aaaac
1aaaaf
1aaaag

#3380000
0aaaad
0aaaag

#3385000
0aaaaf
1aaaag

#3390000
0aaaag

#3395000
1aaaag

#3400000
0aaaag

#3405000
1aaaag

#3410000
0aaaag

#3415000
1aaaag

#3420000
0aaaag

#3425000
1aaaag

#3430000
0aaaag

#3435000
1aaaag

#3440000
b100110 aaaaa
1aaaad
0aaaag

#3445000
b11011011 aaaac
1aaaaf
1aaaag

#3450000
0aaaad
0aaaag

#3455000
0aaaaf
1aaaag

#3460000
b100000000100110 aaaaa
1aaaad
0aaaag

#3465000
b1110011 aaaac
1aaaaf
1aaaag

#3470000
0aaaad
0aaaag

#3475000
0aaaaf
1aaaag

#3480000
0aaaag

#3485000
1aaaag

#3490000
0aaaag

#3495000
1aaaag

#3500000
0aaaag

#3505000
1aaaag

#3510000
0aaaag

#3515000
1aaaag

#3520000
0aaaag

#3525000
1aaaag

#3530000
b100111 aaaaa
1aaaad
0aaaag

#3535000
b10111101 aaaac
1aaaaf
1aaaag

#3540000
0aaaad
0aaaag

#3545000
0aaaaf
1aaaag

#3550000
b100000000100111 aaaaa
1aaaad
0aaaag

#3555000
b11100010 aaaac
1aaaaf
1aaaag

#3560000
0aaaad
0aaaag

#3565000
0aaaaf
1aaaag

#3570000
0aaaag

#3575000
1aaaag

#3580000
0aaaag

#3585000
1aaaag

#3590000
0aaaag

#3595000
1aaaag

#3600000
0aaaag

#3605000
1aaaag

#3610000
0aaaag

#3615000
1aaaag

#3620000
b101000 aaaaa
1aaaad
0aaaag

#3625000
b1011011 aaaac
1aaaaf
1aaaag

#3630000
0aaaad
0aaaag

#3635000
0aaaaf
1aaaag

#3640000
b100000000101000 aaaaa
1aaaad
0aaaag

#3645000
b10011001 aaaac
1aaaaf
1aaaag

#3650000
0aaaad
0aaaag

#3655000
0aaaaf
1aaaag

#3660000
0aaaag

#3665000
1aaaag

#3670000
0aaaag

#3675000
1aaaag

#3680000
0aaaag

#3685000
1aaaag

#3690000
0aaaag

#3695000
1aaaag

#3700000
0aaaag

#3705000
1aaaag

#3710000
b101001 aaaaa
1aaaad
0aaaag

#3715000
b100000001 aaaac
1aaaaf
1aaaag

#3720000
0aaaad
0aaaag

#3725000
0aaaaf
1aaaag

#3730000
b100000000101001 aaaaa
1aaaad
0aaaag

#3735000
b100010101 aaaac
1aaaaf
1aaaag

#3740000
0aaaad
0aaaag

#3745000
0aaaaf
1aaaag

#3750000
0aaaag

#3755000
1aaaag

#3760000
0aaaag

#3765000
1aaaag

#3770000
0aaaag

#3775000
1aaaag

#3780000
0aaaag

#3785000
1aaaag

#3790000
0aaaag

#3795000
1aaaag

#3800000
b101010 aaaaa
1aaaad
0aaaag

#3805000
b11001 aaaac
1aaaaf
1aaaag

#3810000
0aaaad
0aaaag

#3815000
0aaaaf
1aaaag

#3820000
b100000000101010 aaaaa
1aaaad
0aaaag

#3825000
b10101101 aaaac
1aaaaf
1aaaag

#3830000
0aaaad
0aaaag

#3835000
0aaaaf
1aaaag

#3840000
0aaaag

#3845000
1aaaag

#3850000
0aaaag

#3855000
1aaaag

#3860000
0aaaag

#3865000
1aaaag

#3870000
0aaaag

#3875000
1aaaag

#3880000
0aaaag

#3885000
1aaaag

#3890000
b101011 aaaaa
1aaaad
0aaaag

#3895000
b1011 aaaac
1aaaaf
1aaaag

#3900000
0aaaad
0aaaag

#3905000
0aaaaf
1aaaag

#3910000
b100000000101011 aaaaa
1aaaad
0aaaag

#3915000
b11000100 aaaac
1aaaaf
1aaaag

#3920000
0aaaad
0aaaag

#3925000
0aaaaf
1aaaag

#3930000
0aaaag

#3935000
1aaaag

#3940000
0aaaag

#3945000
1aaaag

#3950000
0aaaag

#3955000
1aaaag

#3960000
0aaaag

#3965000
1aaaag

#3970000
0aaaag

#3975000
1aaaag

#3980000
b101100 aaaaa
1aaaad
0aaaag

#3985000
b1010010 aaaac
1aaaaf
1aaaag

#3990000
0aaaad
0aaaag

#3995000
0aaaaf
1aaaag

#4000000
b100000000101100 aaaaa
1aaaad
0aaaag

#4005000
b11011111 aaaac
1aaaaf
1aaaag

#4010000
0aaaad
0aaaag

#4015000
0aaaaf
1aaaag

#4020000
0aaaag

#4025000
1aaaag

#4030000
0aaaag

#4035000
1aaaag

#4040000
0aaaag

#4045000
1aaaag

#4050000
0aaaag

#4055000
1aaaag

#4060000
0aaaag

#4065000
1aaaag

#4070000
b101101 aaaaa
1aaaad
0aaaag

#4075000
b11001100 aaaac
1aaaaf
1aaaag

#4080000
0aaaad
0aaaag

#4085000
0aaaaf
1aaaag

#4090000
b100000000101101 aaaaa
1aaaad
0aaaag

#4095000
b10001101 aaaac
1aaaaf
1aaaag

#4100000
0aaaad
0aaaag

#4105000
0aaaaf
1aaaag

#4110000
0aaaag

#4115000
1aaaag

#4120000
0aaaag

#4125000
1aaaag

#4130000
0aaaag

#4135000
1aaaag

#4140000
0aaaag

#4145000
1aaaag

#4150000
0aaaag

#4155000
1aaaag

#4160000
b101110 aaaaa
1aaaad
0aaaag

#4165000
b100000010 aaaac
1aaaaf
1aaaag

#4170000
0aaaad
0aaaag

#4175000
0aaaaf
1aaaag

#4180000
b100000000101110 aaaaa
1aaaad
0aaaag

#4185000
b11011101 aaaac
1aaaaf
1aaaag

#4190000
0aaaad
0aaaag

#4195000
0aaaaf
1aaaag

#4200000
0aaaag

#4205000
1aaaag

#4210000
0aaaag

#4215000
1aaaag

#4220000
0aaaag

#4225000
1aaaag

#4230000
0aaaag

#4235000
1aaaag

#4240000
0aaaag

#4245000
1aaaag

#4250000
b101111 aaaaa
1aaaad
0aaaag

#4255000
b1101101 aaaac
1aaaaf
1aaaag

#4260000
0aaaad
0aaaag

#4265000
0aaaaf
1aaaag

#4270000
b100000000101111 aaaaa
1aaaad
0aaaag

#4275000
b100001000 aaaac
1aaaaf
1aaaag

#4280000
0aaaad
0aaaag

#4285000
0aaaaf
1aaaag

#4290000
0aaaag

#4295000
1aaaag

#4300000
0aaaag

#4305000
1aaaag

#4310000
0aaaag

#4315000
1aaaag

#4320000
0aaaag

#4325000
1aaaag

#4330000
0aaaag

#4335000
1aaaag

#4340000
b110000 aaaaa
1aaaad
0aaaag

#4345000
b100000110 aaaac
1aaaaf
1aaaag

#4350000
0aaaad
0aaaag

#4355000
0aaaaf
1aaaag

#4360000
b100000000110000 aaaaa
1aaaad
0aaaag

#4365000
b101001111 aaaac
1aaaaf
1aaaag

#4370000
0aaaad
0aaaag

#4375000
0aaaaf
1aaaag

#4380000
0aaaag

#4385000
1aaaag

#4390000
0aaaag

#4395000
1aaaag

#4400000
0aaaag

#4405000
1aaaag

#4410000
0aaaag

#4415000
1aaaag

#4420000
0aaaag

#4425000
1aaaag

#4430000
b110001 aaaaa
1aaaad
0aaaag

#4435000
b10110001 aaaac
1aaaaf
1aaaag

#4440000
0aaaad
0aaaag

#4445000
0aaaaf
1aaaag

#4450000
b100000000110001 aaaaa
1aaaad
0aaaag

#4455000
b10001101 aaaac
1aaaaf
1aaaag

#4460000
0aaaad
0aaaag

#4465000
0aaaaf
1aaaag

#4470000
0aaaag

#4475000
1aaaag

#4480000
0aaaag

#4485000
1aaaag

#4490000
0aaaag

#4495000
1aaaag

#4500000
0aaaag

#4505000
1aaaag

#4510000
0aaaag

#4515000
1aaaag

#4520000
b110010 aaaaa
1aaaad
0aaaag

#4525000
b10000111 aaaac
1aaaaf
1aaaag

#4530000
0aaaad
0aaaag

#4535000
0aaaaf
1aaaag

#4540000
b100000000110010 aaaaa
1aaaad
0aaaag

#4545000
b10001010 aaaac
1aaaaf
1aaaag

#4550000
0aaaad
0aaaag

#4555000
0aaaaf
1aaaag

#4560000
0aaaag

